     5  angstroemd0  -8.03391967620923531E+00 (Ha)  FINAL CONFIGURATION
free  {format: xyz, source: CH4.xyz}
 C -3.88112435904514818E-07 -3.88112269685097213E-07 -3.88088565327762217E-07
 H  6.33040528791907753E-01  6.33040528791861234E-01  6.33040528787582213E-01
 H -6.33040540363893567E-01 -6.33040540363937199E-01  6.33040940043996692E-01
 H  6.33040940051575296E-01 -6.33040540367190374E-01 -6.33040540371502147E-01
 H -6.33040540367154736E-01  6.33040940051536549E-01 -6.33040540371511695E-01
 forces
C       2.01280111963669932E-07  2.01279439431602028E-07  2.01169707325492120E-07
H       8.35978747023943140E-09  8.35991668976132712E-09  8.38029632874735665E-09
H      -7.26954052542620492E-08 -7.26952774777926797E-08 -6.42285007175300519E-08
H      -6.42631902923392195E-08 -7.26810968410337090E-08 -7.26607118334522183E-08
H      -7.26813038873080815E-08 -6.42629818025369781E-08 -7.26607911032571817E-08
