     3  angstroemd0  -1.61700611956041911E+01 (Ha)  FINAL CONFIGURATION
free  {format: xyz, source: HCN.xyz}
 H  2.20601495561572886E-06  2.20601495559356752E-06 -1.14577889154590922E-03
 C -3.97172376588057814E-06 -3.97172376583755226E-06  1.07674443338005932E+00
 N  1.76570926501219678E-06  1.76570926499134516E-06  2.22440135708316822E+00
 forces
H       1.03534046884950788E-07  1.03534046886349451E-07 -1.53995695910324835E-06
C      -2.00756801977714668E-07 -2.00756801980428482E-07  3.36207822176949391E-06
N       9.72227550927640385E-08  9.72227550940796925E-08 -1.82212126266624619E-06
