     6  angstroemd0  -2.30208427277814422E+01 (Ha)  FINAL CONFIGURATION
free  {format: xyz, source: H3CNC.xyz}
 N  7.14687493097960480E-02  8.30796793722090839E-04  7.52545041807009540E-04
 C -1.32533717145814700E+00  8.07307938294224382E-05  1.77732317758608432E-04
 C  1.23778352930365676E+00 -7.71662906703189742E-04 -6.73900970542980573E-04
 H -1.70684458612690770E+00  4.63349645918421815E-01  9.21775918336146693E-01
 H -1.70614238973182220E+00  5.66123891544901281E-01 -8.62542446035795551E-01
 H -1.70562808687919287E+00 -1.03021339570434400E+00 -5.95898168545318449E-02
 forces
N       9.88333773070059933E-07  1.33911724271458115E-05  1.86975560621709766E-05
C      -2.18235166319969146E-07  1.11314154518670738E-05 -1.92152260819600597E-05
C       1.10238414976433142E-06 -1.03774984467069445E-05 -1.18976282872684959E-05
H      -6.60564543687772009E-06 -1.57358634737126236E-06 -5.65437209555061516E-06
H       3.39766749697001994E-06  7.11752131115120041E-07  1.25027398688581621E-05
H       1.33549518339326910E-06 -1.32832552160498162E-05  5.56693053375002027E-06
