     4  angstroemd0  -1.17027276158642017E+01 (Ha)  FINAL CONFIGURATION
free  {format: xyz, source: NH3.xyz}
 N  2.73197549540431889E-07 -2.14217832268565669E-04  3.76199023527373999E-01
 H -2.13176613328690926E-07  9.51367350344462404E-01  3.68537094850064509E-03
 H -8.24172101289518677E-01 -4.75576445732515174E-01  3.77199391954027114E-03
 H  8.24172077760863320E-01 -4.75576673275046713E-01  3.77210424694201900E-03
 forces
N      -2.64376274291703773E-07 -2.56093423263657109E-06 -4.61607058265407541E-06
H       5.02739208381515736E-08  1.05062198472624548E-06  8.69308205993804269E-07
H       2.27071089747393352E-07  7.87877136753678665E-07  1.93311612572875127E-06
H      -1.29687362938411677E-08  7.22435111156649058E-07  1.81364625093151680E-06
