     6  angstroemd0  -2.30603016991037428E+01 (Ha)  FINAL CONFIGURATION
free  {format: xyz, source: H3CCN.xyz}
 C -2.17490251502344524E-05 -1.64785456258717170E-04 -1.16884659503017163E+00
 C -2.07867471700237993E-05 -2.99066225802399686E-04  2.64961825341356816E-01
 N  4.35168628609368638E-05  4.53179908792605249E-04  1.41695150783355728E+00
 H -4.81185912555765399E-07  1.03008658046366652E+00 -1.55319665345766356E+00
 H  8.92094792984728047E-01 -5.15038089899800489E-01 -1.55386817176689118E+00
 H -8.92095292889356184E-01 -5.15037818790596624E-01 -1.55396165188998658E+00
 forces
C       9.88740582245391366E-07 -1.26856613745046497E-05 -7.17975828393642291E-07
C      -9.69141520949142362E-08 -1.10232100473605276E-06  7.33570628310206043E-07
N      -4.83068960502566389E-08  3.21181386677017191E-06 -1.86169496848592000E-06
H      -1.52069959313004689E-07  7.86088557385123387E-06  2.33602571455556346E-06
H      -3.63390242667249817E-06  1.46911416713871359E-06 -2.10992466015247186E-07
H       2.94245285188528279E-06  1.24616877148057974E-06 -2.78933079970967654E-07
