     5  angstroemd0  -8.03401265342202819E+00 (Ha)  FINAL CONFIGURATION
free  {format: xyz, source: CH4.xyz}
 C -3.04182356449591521E-07 -3.04175497102411827E-07 -3.03554985215124153E-07
 H  6.32998549868928784E-01  6.32998549867702986E-01  6.32998549751895512E-01
 H -6.32998661875077473E-01 -6.32998661876305713E-01  6.32999077945573529E-01
 H  6.32999078149060868E-01 -6.32998661962760001E-01 -6.32998662071730056E-01
 H -6.32998661960555320E-01  6.32999078146859628E-01 -6.32998662070753726E-01
 forces
C       1.43159575844280474E-07  1.43130460117788812E-07  1.40573939619989408E-07
H       4.67889377422787277E-08  4.67941349714763660E-08  4.72467525393834669E-08
H      -1.14938121397344898E-07 -1.14932840448666327E-07  4.03896252146761753E-08
H       3.95606570189706057E-08 -1.14561688582777643E-07 -1.14103118848659903E-07
H      -1.14571049208184916E-07  3.95699339421787667E-08 -1.14107198525389134E-07
