     6  angstroemd0  -2.30206406961560077E+01 (Ha)  FINAL CONFIGURATION
free  {format: xyz, source: H3CNC.xyz}
 N  7.17095098836832145E-02  9.19312261729700775E-04  8.62588482172430742E-04
 C -1.32528157804671176E+00  1.33520891224373281E-04  1.99017500395701609E-04
 C  1.23803252610067038E+00 -8.86149348524297668E-04 -8.02589714690453123E-04
 H -1.70717300829958529E+00  4.63301890240960745E-01  9.21691384643208655E-01
 H -1.70628641837547623E+00  5.66048256283351980E-01 -8.62455398189522215E-01
 H -1.70570098684520755E+00 -1.03011682388891490E+00 -5.95949708867234418E-02
 forces
N       1.47055097041261470E-06  2.73165492597580921E-05  2.78926176600571473E-05
C      -4.40256665692378362E-06 -2.02534861402858781E-05 -1.81037822702556892E-06
C       8.98134069192644991E-07 -1.32358693625422546E-05 -1.43096896755249295E-05
H       5.14133555102957258E-06 -3.13962904604871550E-06 -1.25320464542900044E-05
H      -2.31882064460639477E-06  1.34479523327908655E-05 -4.80213906275953674E-06
H      -7.88633289104658869E-07 -4.13551704367212714E-06  5.56163575954287702E-06
