id_notebook,id_mode,value
1,1,2970.60325
1,2,3096.64722
1,3,3096.71046
1,4,3096.72411
1,5,1522.82665
1,6,1522.77664
1,7,1287.19848
1,8,1287.65569
1,9,1287.44606
1,10,-0.409444981
1,11,-0.20810369
1,12,-0.327353018
1,13,-9.86288328
1,14,-10.2241223
1,15,-10.2381926
2,1,2136.0942
2,2,9.07330571
2,3,9.07391416
2,4,-0.00581916148
2,5,-5.02371148e-06
2,6,8.5595242e-06
3,1,3752.38721
3,2,3710.21961
3,3,1711.1445
3,4,-94.255421
3,5,9.49344731
3,6,7.06219926
3,7,-0.433205452
3,8,-0.154913239
3,9,-0.0309805526
4,1,3050.0596
4,2,2951.06298
4,3,3037.0381
4,4,2308.11607
4,5,1411.92607
4,6,1381.17075
4,7,1332.77675
4,8,1016.78433
4,9,1011.69346
4,10,958.828644
4,11,397.863672
4,12,390.523923
4,13,-39.5791756
4,14,-24.8687401
4,15,-6.85135892
4,16,2.28703019
4,17,-2.58461282
4,18,-1.48067179
5,1,2933.08187
5,2,3026.64376
5,3,3026.47692
5,4,2191.68395
5,5,1352.76426
5,6,1396.9776
5,7,1375.73596
5,8,971.812245
5,9,1064.60074
5,10,1067.36778
5,11,294.174016
5,12,274.480599
5,13,-41.8998643
5,14,-14.8695107
5,15,-5.71540727
5,16,-2.24633657
5,17,-1.37954354
5,18,-0.514502585
6,1,3412.44792
6,2,3297.08865
6,3,2008.14786
6,4,765.483152
6,5,761.220294
6,6,649.325411
6,7,645.808461
6,8,4.28915547
6,9,4.01486474
6,10,-2.33621102
6,11,-0.830279313
6,12,-0.0729523962
7,1,3325.46017
7,2,2127.86002
7,3,737.132567
7,4,736.849589
7,5,-5.36955849
7,6,-5.23483431
7,7,-0.257424604
7,8,0.719748922
7,9,0.875145429
8,1,2394.26525
8,2,9.71183204e-06
8,3,6.25015019
8,4,6.25018632
8,5,-6.71539087e-06
8,6,-0.00278153407
9,1,2164.65556
9,2,-788.099107
9,3,1693.26707
9,4,1533.68458
9,5,1054.58038
9,6,1137.3695
9,7,1267.95476
9,8,-417.267584
9,9,-242.826498
9,10,-1.17671753
9,11,-0.756846758
9,12,-0.190767237
10,1,3531.12463
10,2,3384.71348
10,3,3515.57888
10,4,1591.64397
10,5,1569.74606
10,6,989.180913
10,7,-16.9932114
10,8,-19.4997566
10,9,-18.8919899
10,10,-4.3516514
10,11,-0.150101553
10,12,-0.568508242
11,1,1816.83337
11,2,1828.95007
11,3,1835.41268
11,4,1835.42394
11,5,1601.78615
11,6,1594.61458
11,7,1594.6176
11,8,1678.4369
11,9,1678.44079
11,10,-14.7200959
11,11,-14.7231108
11,12,-13.8165632
11,13,-0.364056497
11,14,-0.34698712
11,15,-0.344994998
12,1,2970.00034
12,2,3095.91358
12,3,3095.95476
12,4,3095.9374
12,5,1285.9659
12,6,1286.51666
12,7,1286.43398
12,8,1521.95446
12,9,1521.96829
12,10,-10.0184993
12,11,-10.0493438
12,12,-10.0538652
12,13,-0.24618022
12,14,-0.149401803
12,15,-0.135618975
13,1,2190.41851
13,2,6.23759596
13,3,6.23765429
13,4,8.50809255e-06
13,5,8.50809255e-06
13,6,-0.00650197093
14,1,3750.85736
14,2,3707.85445
14,3,1710.28153
14,4,-95.5026134
14,5,10.3924758
14,6,7.14952869
14,7,-0.564845535
14,8,-0.225768727
14,9,-0.209886389
15,1,3045.32374
15,2,3032.36098
15,3,2949.02547
15,4,2302.86533
15,5,1396.91831
15,6,1365.88435
15,7,1312.92364
15,8,985.597348
15,9,922.771055
15,10,976.476792
15,11,377.12209
15,12,367.707442
15,13,-28.7603484
15,14,-11.4427957
15,15,0.223469374
15,16,-4.99310395
15,17,-6.19025915
15,18,-5.67740224
16,1,2933.686
16,2,3024.88863
16,3,3029.25973
16,4,2199.45817
16,5,1402.89053
16,6,1366.37228
16,7,1381.42704
16,8,994.49529
16,9,1071.63956
16,10,1079.46508
16,11,321.016772
16,12,265.150373
16,13,-55.1343213
16,14,-19.0548554
16,15,-12.097388
16,16,-1.71261698
16,17,-0.232375484
16,18,-0.606334761
17,1,3411.90993
17,2,3297.92103
17,3,2007.1451
17,4,765.57472
17,5,765.527277
17,6,646.349313
17,7,646.295727
17,8,4.47474981
17,9,4.46928779
17,10,-1.19331318
17,11,-1.18949405
17,12,-0.255389793
18,1,3356.75288
18,2,2154.21893
18,3,747.594999
18,4,747.608741
18,5,-26.4508819
18,6,-26.4541779
18,7,-0.383473139
18,8,0.408228797
18,9,0.409556884
19,1,2393.18587
19,2,5.52317174
19,3,5.52317336
19,4,-0.00277334132
19,5,6.35521707e-06
19,6,6.35521707e-06
20,1,2121.55701
20,2,-1291.99714
20,3,1878.63567
20,4,1512.15406
20,5,1201.13563
20,6,1114.64688
20,7,718.649052
20,8,-390.32977
20,9,-644.997878
20,10,-2.31142056
20,11,-0.0723091329
20,12,-0.564824904
21,1,3535.54458
21,2,3523.35047
21,3,3388.25573
21,4,1589.95489
21,5,1570.44952
21,6,948.530157
21,7,-20.3148874
21,8,-16.009546
21,9,-12.3786351
21,10,0.865788594
21,11,-1.65094522
21,12,-0.991911902
22,1,1820.87346
22,2,1797.19102
22,3,1810.92418
22,4,1810.93492
22,5,1589.50889
22,6,1587.19427
22,7,1587.20064
22,8,1666.76174
22,9,1666.74162
22,10,-16.4369579
22,11,-15.9891611
22,12,-15.9818747
22,13,-0.310910372
22,14,-0.284407914
22,15,-0.28959204
23,1,2969.79255
23,2,3096.29747
23,3,3095.99359
23,4,3096.05319
23,5,1286.52337
23,6,1286.83155
23,7,1286.90377
23,8,1522.10647
23,9,1522.07856
23,10,-0.357668492
23,11,-0.2597435
23,12,-0.309072714
23,13,-9.97828943
23,14,-10.0379541
23,15,-10.0447925
24,1,2190.31357
24,2,5.7680609
24,3,5.76766692
24,4,3.18019509e-06
24,5,4.66848476e-06
24,6,-0.00250929229
25,1,3750.51935
25,2,3707.74857
25,3,1709.81105
25,4,-95.4647345
25,5,9.69863779
25,6,8.98413027
25,7,-0.827305984
25,8,-0.221140877
25,9,-0.0332463506
26,1,3050.38982
26,2,3036.57993
26,3,2951.22897
26,4,2309.19054
26,5,1414.77026
26,6,1383.80588
26,7,1338.45727
26,8,967.944985
26,9,1020.99013
26,10,1021.27715
26,11,404.324289
26,12,394.189374
26,13,-53.0539136
26,14,-24.5356768
26,15,-8.18153901
26,16,2.14580114
26,17,-1.73539444
26,18,-0.6148032
27,1,2933.00166
27,2,3025.09582
27,3,3029.05333
27,4,2199.12211
27,5,1358.60078
27,6,1403.4395
27,7,1381.81954
27,8,993.434723
27,9,1073.36484
27,10,1079.72917
27,11,321.176605
27,12,264.33843
27,13,-54.3859834
27,14,-19.2030721
27,15,-10.9624175
27,16,-0.197959791
27,17,-0.549356277
27,18,-0.645351607
28,1,3297.55638
28,2,3411.84405
28,3,2006.9159
28,4,766.355664
28,5,766.338904
28,6,647.108507
28,7,647.076149
28,8,4.33978973
28,9,4.33649462
28,10,-0.0865872093
28,11,-0.972330965
28,12,-0.964430605
29,1,3345.46478
29,2,2149.32484
29,3,741.719716
29,4,741.705555
29,5,-20.1302785
29,6,-20.1335215
29,7,-0.219715718
29,8,-0.232033203
29,9,-0.232452755
30,1,2392.92724
30,2,8.11780846e-06
30,3,5.74565837
30,4,5.74566393
30,5,-0.00710082782
30,6,9.97330243e-06
31,1,-1302.79693
31,2,2138.6176
31,3,1876.03056
31,4,1141.25523
31,5,1219.40675
31,6,1522.04064
31,7,1402.0181
31,8,-392.170263
31,9,-183.550485
31,10,-2.80263753
31,11,-0.120424234
31,12,-0.453622092
32,1,3530.33096
32,2,3524.83275
32,3,3386.22181
32,4,1589.47069
32,5,1572.8066
32,6,882.989729
32,7,-24.9725135
32,8,-14.484617
32,9,-7.34556326
32,10,-5.10732995
32,11,-0.863746957
32,12,-1.15351307
33,1,1809.30888
33,2,1823.03091
33,3,1825.25419
33,4,1825.23849
33,5,1669.33951
33,6,1669.35184
33,7,1588.40596
33,8,1589.46158
33,9,1589.45696
33,10,-20.285366
33,11,-16.4547149
33,12,-16.4539272
33,13,-0.350098127
33,14,-0.343007334
33,15,-0.344497906
34,1,2969.82623
34,2,3095.92882
34,3,3095.91658
34,4,3095.88615
34,5,1286.63858
34,6,1286.77822
34,7,1286.72694
34,8,1521.79606
34,9,1521.79183
34,10,-0.358668736
34,11,-0.325158132
34,12,-0.302431215
34,13,-10.1074205
34,14,-10.0843356
34,15,-10.0860959
35,1,2190.42046
35,2,6.08472208
35,3,6.08451429
35,4,-0.0025096504
35,5,-2.91808647e-06
35,6,-6.19039797e-06
36,1,3750.349
36,2,3708.30246
36,3,1709.13201
36,4,-94.9889855
36,5,10.8924706
36,6,6.43274159
36,7,-0.728849753
36,8,-0.424371691
36,9,-0.153647276
37,1,3044.85051
37,2,3031.70457
37,3,2948.88463
37,4,2302.71464
37,5,1395.09146
37,6,1363.72035
37,7,1313.4177
37,8,979.90446
37,9,971.01698
37,10,930.955605
37,11,370.3585
37,12,359.684247
37,13,-26.315372
37,14,-10.4885313
37,15,-3.69877184
37,16,-1.64954171
37,17,-1.2840301
37,18,-0.521494467
38,1,2932.97227
38,2,3025.0799
38,3,3029.03773
38,4,2199.08138
38,5,1358.70046
38,6,1403.50598
38,7,1381.88377
38,8,993.365156
38,9,1073.35786
38,10,1079.56002
38,11,320.928659
38,12,264.384135
38,13,-54.5332706
38,14,-19.6662049
38,15,-10.9837134
38,16,-0.710462072
38,17,-0.418342705
38,18,-0.547362142
39,1,3297.85021
39,2,3411.78504
39,3,2006.92545
39,4,765.542264
39,5,765.526389
39,6,646.21227
39,7,646.191747
39,8,4.22964623
39,9,4.22475756
39,10,-0.197554707
39,11,-1.10513522
39,12,-1.09591289
40,1,3316.57895
40,2,2126.14669
40,3,733.7907
40,4,733.779469
40,5,-3.88498664
40,6,-3.88167785
40,7,-0.263872053
40,8,1.00400055
40,9,1.00228818
41,1,2393.00877
41,2,-8.32343487e-06
41,3,5.63461244
41,4,5.63461466
41,5,-0.00275840946
41,6,-3.23538174e-06
42,1,-1292.66368
42,2,2166.96472
42,3,1826.51575
42,4,1795.52205
42,5,1486.72117
42,6,1295.65307
42,7,876.819053
42,8,-219.812174
42,9,-101.194642
42,10,-2.47125254
42,11,-0.261271094
42,12,-0.336828004
43,1,3525.96557
43,2,3521.52113
43,3,3380.69018
43,4,1589.57582
43,5,1572.99332
43,6,794.518517
43,7,-26.4574478
43,8,-25.8685206
43,9,-9.84356377
43,10,-7.06632747
43,11,-1.04417037
43,12,-1.11976621
44,1,1808.95886
44,2,1822.77703
44,3,1824.52354
44,4,1824.51931
44,5,1588.37091
44,6,1589.26131
44,7,1589.25525
44,8,1669.15709
44,9,1669.16095
44,10,-9.20624886
44,11,-6.03824021
44,12,-6.03533386
44,13,-0.32295264
44,14,-0.326357705
44,15,-0.328992739
45,1,2969.76606
45,2,3096.10745
45,3,3096.19186
45,4,3096.19952
45,5,1522.03456
45,6,1522.04119
45,7,1286.80506
45,8,1286.74019
45,9,1286.70483
45,10,-0.203410724
45,11,-0.292303046
45,12,-0.332836264
45,13,-10.0459427
45,14,-10.0306108
45,15,-10.0337618
46,1,2190.25182
46,2,5.80677374
46,3,5.80639095
46,4,-1.08427619e-05
46,5,-4.37960302e-06
46,6,-0.00249243643
47,1,3750.84041
47,2,3706.94032
47,3,1710.40051
47,4,-95.9014158
47,5,10.5262928
47,6,9.55014
47,7,-0.429581979
47,8,-0.147424583
47,9,-0.293266298
48,1,3058.74071
48,2,3039.32503
48,3,2954.93419
48,4,2310.68748
48,5,1431.12044
48,6,1407.79808
48,7,1340.46813
48,8,981.44097
48,9,1022.38431
48,10,1024.77635
48,11,409.848757
48,12,409.798981
48,13,-56.721799
48,14,-14.4469687
48,15,-6.62777994
48,16,-2.28350532
48,17,-0.451576135
48,18,-0.473348936
49,1,2932.82875
49,2,3024.6929
49,3,3030.06315
49,4,2199.81567
49,5,1400.78775
49,6,1358.26415
49,7,1374.20365
49,8,994.097992
49,9,1073.20359
49,10,1080.06767
49,11,327.652026
49,12,268.703246
49,13,-42.6070778
49,14,-16.099423
49,15,-6.00729872
49,16,-0.621770285
49,17,0.216973432
49,18,-0.393480721
50,1,3298.02795
50,2,3411.99866
50,3,2007.00528
50,4,766.359244
50,5,766.34166
50,6,646.626766
50,7,646.605182
50,8,4.26725777
50,9,4.26428639
50,10,-0.0694590631
50,11,-0.919168777
50,12,-0.91376822
51,1,3317.34563
51,2,2123.492
51,3,734.804471
51,4,734.789813
51,5,-3.53192683
51,6,-3.53046333
51,7,-0.185902938
51,8,1.32317582
51,9,1.31275432
52,1,2392.96977
52,2,1.25253252e-05
52,3,5.74093097
52,4,5.74092272
52,5,-0.00276744134
52,6,-7.34220787e-06
53,1,-1468.68228
53,2,2124.26425
53,3,1884.23658
53,4,2009.12855
53,5,1568.18419
53,6,1497.66092
53,7,869.371366
53,8,-107.71647
53,9,-82.2046116
53,10,-0.583095202
53,11,0.0568103632
53,12,-0.366002984
54,1,3526.59686
54,2,3521.74071
54,3,3381.07344
54,4,1589.95088
54,5,1573.24469
54,6,802.773255
54,7,-25.8981501
54,8,-23.0007125
54,9,-9.80258731
54,10,-7.32465374
54,11,-0.728383488
54,12,-0.89548624
55,1,1808.93776
55,2,1822.86157
55,3,1824.58204
55,4,1824.57358
55,5,1669.38445
55,6,1669.36939
55,7,1588.61846
55,8,1589.33584
55,9,1589.33953
55,10,-9.29174508
55,11,-6.05060816
55,12,-6.04487035
55,13,-0.358135471
55,14,-0.344780362
55,15,-0.346774054
56,1,2944.55172
56,2,3079.62076
56,3,3079.66447
56,4,3079.65631
56,5,1471.8147
56,6,1471.80269
56,7,1258.71587
56,8,1258.73889
56,9,1258.72758
56,10,-9.98573964
56,11,-10.217846
56,12,-10.2163163
56,13,-0.180758211
56,14,-0.194475086
56,15,-0.199960559
57,1,2180.43128
57,2,-4.2832094
57,3,-4.28299028
57,4,-0.00250062872
57,5,-1.36025934e-06
57,6,4.573017e-06
58,1,3707.66385
58,2,3834.30954
58,3,1544.21256
58,4,-22.6612028
58,5,9.69131951
58,6,-6.54186715
58,7,5.03853213
58,8,-0.703319652
58,9,0.836263711
59,1,3045.68345
59,2,3038.7105
59,3,2959.44457
59,4,2308.2394
59,5,1394.87185
59,6,1387.26363
59,7,1338.27305
59,8,998.64253
59,9,1000.46635
59,10,959.917247
59,11,388.887208
59,12,380.572017
59,13,-28.1113949
59,14,-17.92735
59,15,-6.71037852
59,16,-2.59285458
59,17,-1.01886168
59,18,-0.730587108
60,1,2948.8821
60,2,3029.24815
60,3,3031.9925
60,4,2189.90443
60,5,1366.9678
60,6,1412.61932
60,7,1405.56415
60,8,981.986165
60,9,1088.56466
60,10,1090.10017
60,11,288.751557
60,12,271.783491
60,13,-21.6928776
60,14,-7.4697647
60,15,-3.0865133
60,16,2.67991612
60,17,-0.837256756
60,18,-1.07249376
61,1,3410.31137
61,2,3308.7706
61,3,2008.61609
61,4,724.232793
61,5,722.463224
61,6,636.479621
61,7,635.443767
61,8,-5.14158707
61,9,-4.44444333
61,10,-2.17415862
61,11,-1.47919905
61,12,0.338029761
62,1,3357.35315
62,2,2160.03383
62,3,732.438456
62,4,732.435377
62,5,-31.7655017
62,6,-31.7627966
62,7,-0.257649804
62,8,0.391010263
62,9,0.379731731
63,1,2382.2183
63,2,5.91378055
63,3,5.91378366
63,4,-0.00276300331
63,5,-8.69915876e-06
63,6,-8.69915876e-06
64,1,1329.53409
64,2,-582.119418
64,3,1016.42888
64,4,891.497334
64,5,878.456119
64,6,804.118309
64,7,604.375967
64,8,-106.162957
64,9,-58.9101935
64,10,-2.46056466
64,11,-1.67569526
64,12,-0.476385827
65,1,3530.35166
65,2,3517.27948
65,3,3386.69986
65,4,1577.2673
65,5,1562.75848
65,6,922.101146
65,7,-12.7980097
65,8,-13.3769784
65,9,-5.23504702
65,10,-0.929755852
65,11,0.527304442
65,12,0.343139426
66,1,1118.93874
66,2,1233.57659
66,3,1240.6824
66,4,1240.67529
66,5,887.147414
66,6,887.1033
66,7,896.948946
66,8,898.119472
66,9,898.139518
66,10,3.97995084
66,11,2.00662178
66,12,1.98101194
66,13,-0.35269115
66,14,-1.19245035
66,15,-1.18728134
67,1,2943.85613
67,2,3079.37968
67,3,3079.52621
67,4,3079.48791
67,5,1258.87857
67,6,1258.76359
67,7,1258.7115
67,8,1471.48788
67,9,1471.48494
67,10,-0.395083008
67,11,-0.339238087
67,12,-0.323483933
67,13,-9.99880626
67,14,-10.0596481
67,15,-10.0497646
68,1,2154.73512
68,2,6.57282516
68,3,6.57272024
68,4,-0.00245413831
68,5,-1.62925308e-05
68,6,-3.23327064e-06
69,1,3706.6753
69,2,3832.50816
69,3,1544.57063
69,4,-21.9759317
69,5,10.3873476
69,6,-5.94810448
69,7,5.59518541
69,8,-0.643686307
69,9,0.676571076
70,1,3047.27926
70,2,3039.37724
70,3,2960.27295
70,4,2310.10288
70,5,1397.19516
70,6,1390.84708
70,7,1339.03984
70,8,962.3746
70,9,1006.2421
70,10,1008.11936
70,11,393.685308
70,12,390.050748
70,13,-25.3965292
70,14,-16.1112705
70,15,-7.74613173
70,16,-2.19867143
70,17,1.05544478
70,18,-0.764874275
71,1,2948.68338
71,2,3028.01803
71,3,3031.3234
71,4,2194.16558
71,5,1366.53166
71,6,1408.24531
71,7,1399.79381
71,8,981.608489
71,9,1080.38533
71,10,1081.51449
71,11,280.396247
71,12,258.328647
71,13,-32.4935047
71,14,-10.1501884
71,15,-1.9464469
71,16,-0.926782935
71,17,-0.328596139
71,18,-0.695819873
72,1,3308.74544
72,2,3409.92886
72,3,2007.88721
72,4,725.410871
72,5,725.296679
72,6,635.717319
72,7,635.651642
72,8,-4.86426371
72,9,-4.79211957
72,10,0.408273786
72,11,-1.19557352
72,12,-1.29004073
73,1,3340.54146
73,2,2139.3701
73,3,720.561295
73,4,720.556683
73,5,-17.3081236
73,6,-17.3044531
73,7,-0.268796226
73,8,0.035694251
73,9,0.0493880381
74,1,2381.00836
74,2,-6.32125932e-06
74,3,6.10184551
74,4,6.10184901
74,5,-0.00276754932
74,6,6.03421703e-06
75,1,1362.19959
75,2,1130.53188
75,3,-578.47286
75,4,910.409026
75,5,863.478976
75,6,687.182531
75,7,640.252117
75,8,-117.680333
75,9,-183.914919
75,10,-4.73485794
75,11,-0.0757422343
75,12,-0.650519048
76,1,3526.52114
76,2,3517.33687
76,3,3383.36044
76,4,1578.05999
76,5,1565.8829
76,6,888.010149
76,7,-14.1250109
76,8,-11.7473598
76,9,-8.41488422
76,10,-5.76393309
76,11,0.048119422
76,12,-0.64452252
77,1,1117.115
77,2,1237.01252
77,3,1236.64807
77,4,1236.65011
77,5,879.172412
77,6,879.160748
77,7,891.35825
77,8,890.679492
77,9,890.684239
77,10,4.10150576
77,11,3.4962761
77,12,3.50082025
77,13,-0.518845108
77,14,-0.504496215
77,15,-0.495828055
78,1,2943.9372
78,2,3078.89017
78,3,3078.83552
78,4,3078.83408
78,5,1471.20739
78,6,1471.20488
78,7,1258.19687
78,8,1258.31676
78,9,1258.30818
78,10,-0.138939064
78,11,-0.157755402
78,12,-0.168926415
78,13,-10.1712961
78,14,-10.1939127
78,15,-10.1945136
79,1,2154.69161
79,2,7.54969104
79,3,7.54991882
79,4,2.93470818e-06
79,5,-1.44911602e-05
79,6,-0.0062797023
80,1,3705.77749
80,2,3833.99386
80,3,1542.10819
80,4,-22.7237014
80,5,9.93970016
80,6,-6.88071293
80,7,4.92114945
80,8,-1.34562551
80,9,0.809635089
81,1,3044.15236
81,2,3038.0516
81,3,2957.87793
81,4,2302.97006
81,5,1392.36774
81,6,1328.13947
81,7,1386.29114
81,8,995.176245
81,9,995.399208
81,10,944.060349
81,11,383.898793
81,12,381.074394
81,13,-20.8179575
81,14,-10.7005183
81,15,-7.21030693
81,16,-2.80065649
81,17,-0.85088049
81,18,-0.506030326
82,1,2948.77533
82,2,3027.97222
82,3,3031.52701
82,4,2193.86992
82,5,1369.22211
82,6,1407.69094
82,7,1399.93197
82,8,982.119266
82,9,1080.1448
82,10,1081.27854
82,11,280.649766
82,12,258.70918
82,13,-33.1047601
82,14,-10.8691904
82,15,-1.37455607
82,16,0.508423783
82,17,-0.835859637
82,18,-0.458738304
83,1,3409.71324
83,2,3308.48543
83,3,2007.65426
83,4,724.349103
83,5,724.280467
83,6,634.809461
83,7,634.72784
83,8,-4.95272685
83,9,-4.90278586
83,10,-0.0502393674
83,11,-1.6066573
83,12,-1.44963528
84,1,3320.13145
84,2,2125.97072
84,3,718.772739
84,4,718.769104
84,5,-9.77705365
84,6,-9.77645206
84,7,-0.291427495
84,8,1.55726532
84,9,1.55707762
85,1,2381.08677
85,2,-4.80301105e-06
85,3,6.07871549
85,4,6.0787232
85,5,-0.00274240219
85,6,-2.71106478e-06
86,1,1403.61062
86,2,-595.868626
86,3,1141.12086
86,4,698.556384
86,5,916.430479
86,6,923.339919
86,7,854.045637
86,8,-128.227224
86,9,-106.580459
86,10,-0.0795981932
86,11,-0.510874745
86,12,-1.90502863
87,1,3525.60072
87,2,3511.80262
87,3,3383.1169
87,4,1578.59655
87,5,1563.61276
87,6,949.519832
87,7,-13.0800395
87,8,-13.8718143
87,9,-6.25841718
87,10,-3.02291474
87,11,-1.14954666
87,12,-0.672905479
88,1,1119.6606
88,2,1237.54543
88,3,1238.51224
88,4,1238.50601
88,5,884.621176
88,6,884.652735
88,7,894.849429
88,8,895.726704
88,9,895.734056
88,10,-0.470162757
88,11,-0.422762923
88,12,-0.408759603
88,13,3.51981903
88,14,3.52456399
88,15,3.53539232
89,1,2943.79208
89,2,3079.32794
89,3,3079.45135
89,4,3079.41454
89,5,1258.8103
89,6,1258.74641
89,7,1258.70381
89,8,1471.43457
89,9,1471.43855
89,10,-0.360308681
89,11,-0.283948622
89,12,-0.241608847
89,13,-10.0121118
89,14,-10.0524185
89,15,-10.044812
90,1,2154.58765
90,2,6.80462856
90,3,6.80472436
90,4,-0.00247046448
90,5,-2.10952408e-05
90,6,-5.75434581e-06
91,1,3705.87022
91,2,3833.38675
91,3,1543.40405
91,4,-22.5547603
91,5,-6.49187998
91,6,9.72854968
91,7,5.24903452
91,8,-1.18101272
91,9,0.783357646
92,1,3046.18683
92,2,3039.78189
92,3,2959.77392
92,4,2306.30185
92,5,1395.78285
92,6,1389.2988
92,7,1333.59563
92,8,1004.07378
92,9,1002.41633
92,10,945.176962
92,11,389.975302
92,12,385.357575
92,13,-18.7463553
92,14,-12.1343595
92,15,-6.19173164
92,16,-2.85075849
92,17,0.924441522
92,18,-0.355401555
93,1,2948.79741
93,2,3028.11235
93,3,3031.16467
93,4,2194.08325
93,5,1369.10491
93,6,1408.58154
93,7,1399.95901
93,8,982.367776
93,9,1081.4952
93,10,1080.49811
93,11,280.361462
93,12,258.421536
93,13,-33.232912
93,14,-10.633637
93,15,-3.29783928
93,16,-0.773261556
93,17,-0.286669131
93,18,-0.415254566
94,1,3308.66961
94,2,3409.8438
94,3,2007.75471
94,4,725.538457
94,5,725.487527
94,6,635.646567
94,7,635.705011
94,8,-5.51298108
94,9,-5.41530829
94,10,0.411428661
94,11,-1.21924376
94,12,-1.21986208
95,1,3324.95875
95,2,2134.77547
95,3,723.517123
95,4,723.514271
95,5,-16.2164055
95,6,-16.2053518
95,7,-0.318151693
95,8,0.507358944
95,9,0.481692283
96,1,2381.06299
96,2,6.08133635
96,3,6.08133607
96,4,-0.00654566741
96,5,-2.49780131e-06
96,6,3.03474735e-06
97,1,1387.48788
97,2,-640.607251
97,3,1176.84431
97,4,1144.46432
97,5,1000.40947
97,6,910.36541
97,7,562.84528
97,8,-43.1819525
97,9,-90.6316941
97,10,-0.45038401
97,11,-0.606109538
97,12,-2.07149413
98,1,3528.41861
98,2,3510.80654
98,3,3386.2065
98,4,1579.32865
98,5,1561.2884
98,6,1009.36131
98,7,-16.3522963
98,8,-12.8667689
98,9,-9.89263677
98,10,-6.08965029
98,11,-0.337516151
98,12,-0.114721568
99,1,1119.60329
99,2,1237.78796
99,3,1238.51788
99,4,1238.50296
99,5,894.731332
99,6,895.799971
99,7,895.759319
99,8,884.784908
99,9,884.797379
99,10,3.39990124
99,11,3.30043236
99,12,3.3106104
99,13,-0.417259883
99,14,-0.41971336
99,15,-0.420389572
100,1,2943.93276
100,2,3078.88079
100,3,3078.83673
100,4,3078.83475
100,5,1258.16838
100,6,1258.29662
100,7,1258.28629
100,8,1471.18951
100,9,1471.19024
100,10,-0.110899391
100,11,-0.138432622
100,12,-0.153079152
100,13,-10.1771979
100,14,-10.1883545
100,15,-10.1878865
101,1,2154.84754
101,2,7.42797596
101,3,7.4282441
101,4,-0.00245471187
101,5,6.72067577e-06
101,6,6.72067577e-06
102,1,3705.52053
102,2,3833.67382
102,3,1541.37664
102,4,-22.721661
102,5,-6.90371128
102,6,9.56052883
102,7,4.82425706
102,8,-1.59541692
102,9,0.784595251
103,1,3044.07152
103,2,3036.54907
103,3,2956.50941
103,4,2307.34955
103,5,1392.04606
103,6,1388.0979
103,7,1326.44425
103,8,998.730434
103,9,999.335031
103,10,960.567301
103,11,387.110735
103,12,372.45195
103,13,-25.1961123
103,14,-25.7163856
103,15,-7.8984562
103,16,-0.520310969
103,17,-0.779120941
103,18,-0.97862867
104,1,2948.95501
104,2,3028.78639
104,3,3031.76749
104,4,2193.83099
104,5,1369.49403
104,6,1403.76974
104,7,1407.90628
104,8,982.186406
104,9,1079.42609
104,10,1080.6894
104,11,281.367871
104,12,262.967784
104,13,-16.9906235
104,14,-6.1033345
104,15,-4.95085377
104,16,-0.950100177
104,17,-0.446640362
104,18,-0.471073829
105,1,3308.24592
105,2,3409.63719
105,3,2007.63582
105,4,725.454971
105,5,725.427881
105,6,634.88372
105,7,634.853292
105,8,-6.04307818
105,9,-6.00035888
105,10,-0.0647465464
105,11,-1.2151622
105,12,-1.19750992
106,1,3363.44262
106,2,2163.9996
106,3,732.458355
106,4,732.452994
106,5,-33.4374797
106,6,-33.4410529
106,7,0.332675368
106,8,0.333321065
106,9,-0.313498211
107,1,2381.02013
107,2,2.58944457e-06
107,3,6.10356188
107,4,6.10356124
107,5,1.37677307e-06
107,6,-0.00702929438
108,1,1391.50962
108,2,1123.08003
108,3,1241.87374
108,4,-631.915513
108,5,897.49801
108,6,564.818018
108,7,625.961785
108,8,-243.83502
108,9,-45.8414489
108,10,-0.68366789
108,11,-0.310479786
108,12,-0.407432914
109,1,3527.90151
109,2,3510.84698
109,3,3386.07897
109,4,1578.79091
109,5,1560.96773
109,6,1007.02485
109,7,-15.6348142
109,8,-13.0055324
109,9,-10.075011
109,10,-5.69457028
109,11,-1.04968967
109,12,-0.248299003
110,1,1119.53205
110,2,1237.78431
110,3,1238.22096
110,4,1238.21344
110,5,894.440497
110,6,895.919493
110,7,895.938745
110,8,884.594638
110,9,884.593427
110,10,-0.480567575
110,11,-0.428375461
110,12,-0.443284348
110,13,3.49163617
110,14,3.30984096
110,15,3.30600282
111,1,2948.0544
111,2,3080.72753
111,3,3081.03066
111,4,3081.04354
111,5,1256.40049
111,6,1256.84865
111,7,1256.93216
111,8,1477.73575
111,9,1477.73988
111,10,-0.32923441
111,11,-0.0957732224
111,12,-0.183886908
111,13,-10.1962189
111,14,-10.2397613
111,15,-10.231511
112,1,2154.46246
112,2,-8.80034732e-06
112,3,4.9463418
112,4,4.94635919
112,5,-0.00246884749
112,6,-3.70459535e-06
113,1,3735.64299
113,2,3872.72793
113,3,1689.0269
113,4,-46.6745953
113,5,16.7207615
113,6,9.56180503
113,7,-2.07337372
113,8,-2.5003432
113,9,0.756109825
114,1,3044.87855
114,2,3044.27874
114,3,2959.46268
114,4,2307.68905
114,5,1390.35232
114,6,1392.0071
114,7,1342.77489
114,8,971.595122
114,9,996.878854
114,10,997.328213
114,11,386.587644
114,12,385.578168
114,13,-54.4311809
114,14,-44.601834
114,15,-6.16303281
114,16,-2.56657823
114,17,-0.482396579
114,18,-0.511805572
115,1,2950.45443
115,2,3031.23674
115,3,3032.88473
115,4,2192.95611
115,5,1369.69375
115,6,1406.87567
115,7,1408.39374
115,8,982.473561
115,9,1086.89981
115,10,1085.75612
115,11,294.208609
115,12,278.675125
115,13,-18.8487439
115,14,-5.19526774
115,15,-2.16597045
115,16,-0.0649618258
115,17,-0.866362068
115,18,-1.26978238
116,1,3413.69426
116,2,3321.45589
116,3,2012.6075
116,4,717.925009
116,5,716.958796
116,6,635.71993
116,7,634.821839
116,8,-10.4580457
116,9,-9.7920978
116,10,-0.934490905
116,11,-0.641286751
116,12,-0.10199861
117,1,3334.66805
117,2,2132.42076
117,3,713.097295
117,4,713.104097
117,5,-9.22820531
117,6,-9.22499907
117,7,-0.171953633
117,8,1.00349961
117,9,1.0160471
118,1,2380.85207
118,2,-1.03619301e-05
118,3,5.57155411
118,4,5.57155574
118,5,-0.00703762995
118,6,-1.8845746e-06
119,1,1044.14267
119,2,878.889763
119,3,875.54547
119,4,671.565677
119,5,464.855294
119,6,510.86773
119,7,-44.332811
119,8,-21.4038366
119,9,-17.0204524
119,10,-2.02215059
119,11,-0.732155484
119,12,-0.939849188
120,1,3526.36037
120,2,3522.6397
120,3,3386.22996
120,4,1578.19397
120,5,1576.2844
120,6,919.649597
120,7,-12.72103
120,8,-9.91607967
120,9,-0.439126922
120,10,-0.827647819
120,11,-2.30459302
120,12,-2.43483727
121,1,820.570833
121,2,1041.17285
121,3,1041.63954
121,4,1041.6227
121,5,466.714571
121,6,470.303238
121,7,470.2637
121,8,387.009815
121,9,386.989843
121,10,-3.8152789
121,11,-3.83530463
121,12,-2.75840939
121,13,-0.657272903
121,14,-0.695497758
121,15,-0.716618075
122,1,2947.37054
122,2,3079.92328
122,3,3079.93565
122,4,3079.94343
122,5,1255.98394
122,6,1255.08744
122,7,1255.05944
122,8,1477.06629
122,9,1477.08716
122,10,-0.57673769
122,11,-0.875812588
122,12,-0.83616346
122,13,-10.0629828
122,14,-10.1442636
122,15,-10.1410628
123,1,2153.68359
123,2,4.2428377
123,3,4.24270197
123,4,-0.00245264956
123,5,-9.24142762e-06
123,6,1.3425211e-06
124,1,3872.58135
124,2,3734.472
124,3,1688.8575
124,4,-47.0943543
124,5,15.8047371
124,6,9.94214498
124,7,-2.81567064
124,8,-2.12621607
124,9,0.742240083
125,1,3044.17996
125,2,3043.21808
125,3,2957.53793
125,4,2305.98019
125,5,1389.33411
125,6,1390.0157
125,7,1323.59178
125,8,940.063279
125,9,1001.39079
125,10,1001.692
125,11,385.942872
125,12,386.151164
125,13,-15.1966959
125,14,-11.5598031
125,15,-7.08923815
125,16,-4.33168583
125,17,0.147923444
125,18,-0.634186092
126,1,2950.42742
126,2,3031.09888
126,3,3032.73998
126,4,2192.29353
126,5,1371.29915
126,6,1406.18139
126,7,1407.76337
126,8,986.286383
126,9,1084.76643
126,10,1085.43036
126,11,277.864548
126,12,291.404251
126,13,-16.1147283
126,14,-5.3448729
126,15,-3.50412895
126,16,-1.55595745
126,17,-0.687020654
126,18,-0.943457711
127,1,3320.92918
127,2,3413.50803
127,3,2011.82138
127,4,717.560471
127,5,717.323656
127,6,635.707794
127,7,635.503393
127,8,-10.0807359
127,9,-9.84720418
127,10,-1.00589917
127,11,-0.865201184
127,12,-0.0904968096
128,1,3336.45251
128,2,2144.98764
128,3,720.417862
128,4,720.41675
128,5,-18.5844472
128,6,-18.5621414
128,7,-0.117479608
128,8,0.87068424
128,9,0.824313858
129,1,2379.74096
129,2,8.52758851e-06
129,3,6.23930675
129,4,6.23932405
129,5,-9.15736388e-06
129,6,-0.00276557531
130,1,1040.37602
130,2,869.505478
130,3,870.502264
130,4,686.696715
130,5,492.001239
130,6,548.612327
130,7,-54.3681445
130,8,-11.3774931
130,9,-2.87681939
130,10,-1.07382421
130,11,-0.442546626
130,12,-0.557392884
131,1,3531.36154
131,2,3522.20005
131,3,3388.49003
131,4,1579.35157
131,5,1573.28275
131,6,979.378306
131,7,-15.7276631
131,8,-10.7015854
131,9,-4.26513255
131,10,1.10007025
131,11,-2.10568474
131,12,-1.40395449
132,1,819.759904
132,2,1040.17096
132,3,1040.13831
132,4,1040.14929
132,5,468.924649
132,6,468.827681
132,7,468.819637
132,8,387.284301
132,9,387.315913
132,10,-0.319380947
132,11,-0.487794116
132,12,-0.516870537
132,13,-2.65340177
132,14,-2.5024482
132,15,-2.50009669
133,1,2947.37866
133,2,3080.31931
133,3,3080.2324
133,4,3080.24744
133,5,1256.50384
133,6,1256.37888
133,7,1256.32457
133,8,1477.30523
133,9,1477.31279
133,10,-10.0238277
133,11,-10.0889638
133,12,-10.0914564
133,13,-0.124293624
133,14,-0.147493283
133,15,-0.142459417
134,1,2153.48729
134,2,3.01125577
134,3,3.01109264
134,4,4.25295497e-06
134,5,4.25295497e-06
134,6,-0.00246880359
135,1,3734.55548
135,2,3872.13715
135,3,1689.0006
135,4,-46.9058446
135,5,16.3712234
135,6,10.3833457
135,7,-3.39091265
135,8,-2.07682051
135,9,0.716848271
136,1,3044.00195
136,2,3043.36301
136,3,2957.75238
136,4,2305.46766
136,5,1327.39607
136,6,1390.09737
136,7,1391.13559
136,8,997.137193
136,9,996.80418
136,10,961.583154
136,11,386.094466
136,12,384.421031
136,13,-45.5774867
136,14,-39.8017517
136,15,-6.22981405
136,16,-0.22493426
136,17,-0.739849909
136,18,-0.930096459
137,1,2950.50693
137,2,3030.81823
137,3,3032.45654
137,4,2191.9346
137,5,1372.91811
137,6,1408.15995
137,7,1405.82781
137,8,986.357915
137,9,1085.70975
137,10,1085.18187
137,11,291.855473
137,12,278.788845
137,13,-15.2092445
137,14,-5.13118172
137,15,-1.26518067
137,16,-0.610173326
137,17,-0.641543528
137,18,-2.91878796
138,1,3320.53734
138,2,3413.40319
138,3,2011.68507
138,4,718.48182
138,5,718.417701
138,6,635.373096
138,7,635.305328
138,8,-9.50735076
138,9,-9.38139155
138,10,-0.654172705
138,11,-0.536437507
138,12,-0.230158921
139,1,3336.7669
139,2,2142.0905
139,3,718.050693
139,4,718.048301
139,5,-15.1552934
139,6,-15.1174584
139,7,-0.22617439
139,8,0.590302748
139,9,0.454641513
140,1,2379.69664
140,2,1.49207783e-05
140,3,5.90574474
140,4,5.9057541
140,5,-0.00273865879
140,6,6.76027901e-06
141,1,1037.97382
141,2,867.154278
141,3,862.855682
141,4,683.653387
141,5,502.349448
141,6,552.45713
141,7,-34.5734454
141,8,-23.8812828
141,9,-1.74398224
141,10,-0.983327062
141,11,-1.01093366
141,12,-1.08550692
142,1,3532.12589
142,2,3526.77382
142,3,3389.71729
142,4,1577.68455
142,5,1574.65565
142,6,923.431689
142,7,-13.9685368
142,8,-10.5962356
142,9,1.5487134
142,10,-1.32881715
142,11,-1.16588999
142,12,-0.81321419
143,1,819.84762
143,2,1040.57862
143,3,1040.53103
143,4,1040.54247
143,5,470.25792
143,6,470.102519
143,7,470.129916
143,8,389.381503
143,9,389.390584
143,10,-0.517843053
143,11,-0.586190095
143,12,-0.609483479
143,13,-1.98216521
143,14,-1.75928131
143,15,-1.75650983
144,1,2947.38789
144,2,3080.0591
144,3,3080.11044
144,4,3080.10381
144,5,1255.96917
144,6,1256.03878
144,7,1256.04793
144,8,1477.12122
144,9,1477.12255
144,10,-0.398776725
144,11,-0.368187523
144,12,-0.360931511
144,13,-10.0994352
144,14,-10.062556
144,15,-10.0634458
145,1,2153.55853
145,2,1.25928728e-05
145,3,4.36874757
145,4,4.36872343
145,5,7.44981576e-06
145,6,-0.00246881337
146,1,3734.17026
146,2,3872.67696
146,3,1688.09745
146,4,-47.2562815
146,5,16.1601508
146,6,9.92086754
146,7,-2.10676073
146,8,-2.59464907
146,9,0.741460873
147,1,3045.10567
147,2,3043.81047
147,3,2957.81399
147,4,2306.78984
147,5,1389.31058
147,6,1390.1257
147,7,1332.19571
147,8,1001.31412
147,9,1002.18003
147,10,943.417665
147,11,391.741547
147,12,391.54353
147,13,-11.2071484
147,14,-7.48259375
147,15,-6.93612293
147,16,-0.550083289
147,17,-0.489638191
147,18,-1.93455043
148,1,2950.49813
148,2,3031.05147
148,3,3032.54275
148,4,2191.83794
148,5,1373.3954
148,6,1406.43956
148,7,1407.68225
148,8,986.331242
148,9,1084.56026
148,10,1085.00223
148,11,279.490754
148,12,293.448307
148,13,-14.675255
148,14,-4.35107333
148,15,0.71921096
148,16,-1.18717095
148,17,-0.482238094
148,18,-0.655698551
149,1,3413.11733
149,2,3320.50488
149,3,2011.67908
149,4,717.351632
149,5,717.332621
149,6,635.281657
149,7,635.260986
149,8,-11.2499545
149,9,-11.2101984
149,10,-0.848563457
149,11,-0.81138781
149,12,-0.232540763
150,1,3332.61443
150,2,2130.74639
150,3,713.987199
150,4,713.983314
150,5,-8.65541706
150,6,-8.64721614
150,7,-0.16324355
150,8,0.714593526
150,9,0.716926175
151,1,2379.66959
151,2,1.74329611e-06
151,3,5.85003388
151,4,5.85003387
151,5,-0.00273182093
151,6,-5.7764366e-08
152,1,1035.89775
152,2,895.334881
152,3,857.402306
152,4,658.588128
152,5,494.903968
152,6,526.018526
152,7,-20.5271199
152,8,-22.251457
152,9,-7.12516669
152,10,-0.16514167
152,11,-0.860124797
152,12,-1.15686762
153,1,3386.98327
153,2,3528.76588
153,3,3525.85417
153,4,1576.47647
153,5,1574.77995
153,6,858.778744
153,7,-12.4190549
153,8,-11.8696812
153,9,-8.12598422
153,10,0.926228323
153,11,-1.06230194
153,12,-0.594495993
154,1,819.63679
154,2,1039.8895
154,3,1040.03551
154,4,1040.01602
154,5,467.841157
154,6,468.766229
154,7,468.742766
154,8,386.324508
154,9,386.304095
154,10,-0.868665689
154,11,-0.830744344
154,12,-0.815665161
154,13,-2.86357219
154,14,-2.87381245
154,15,-2.87064008
155,1,2947.27319
155,2,3080.09226
155,3,3080.14743
155,4,3080.12155
155,5,1256.0291
155,6,1255.85313
155,7,1255.82619
155,8,1477.24266
155,9,1477.218
155,10,-0.286394065
155,11,-0.325820034
155,12,-0.330208315
155,13,-10.0895165
155,14,-10.0748256
155,15,-10.0676297
156,1,2153.57446
156,2,2.24985306
156,3,2.24976746
156,4,-0.00633153384
156,5,-3.9860159e-06
156,6,3.35431922e-06
157,1,3733.56424
157,2,3872.15161
157,3,1686.42207
157,4,-46.8500437
157,5,15.9986823
157,6,9.96023395
157,7,-2.15633462
157,8,-1.81591523
157,9,0.70863889
158,1,3042.7571
158,2,3039.45533
158,3,2957.83527
158,4,2305.94597
158,5,1388.92027
158,6,1387.73352
158,7,1331.13171
158,8,1000.15736
158,9,999.380822
158,10,947.756331
158,11,384.842853
158,12,378.26773
158,13,-9.21788011
158,14,-7.75509756
158,15,-6.08055281
158,16,0.858334321
158,17,-0.993619353
158,18,-0.362000214
159,1,2192.34408
159,2,2950.61109
159,3,3030.91978
159,4,3031.795
159,5,986.812001
159,6,1372.973
159,7,1407.71135
159,8,1406.95683
159,9,1084.26837
159,10,1083.82633
159,11,278.830098
159,12,284.73206
159,13,-13.4498802
159,14,-4.64627906
159,15,-3.48515807
159,16,-1.39403072
159,17,-0.364907071
159,18,-0.818793927
160,1,3320.71739
160,2,3413.43951
160,3,2011.69003
160,4,719.116811
160,5,719.056361
160,6,636.340506
160,7,636.272252
160,8,-10.777559
160,9,-10.7602976
160,10,-0.489699781
160,11,-0.441103622
160,12,-0.154579897
161,1,3331.66136
161,2,2136.73345
161,3,718.153733
161,4,718.153418
161,5,-13.8352036
161,6,-13.8116396
161,7,-0.103586593
161,8,0.453405153
161,9,0.356741642
162,1,2379.80244
162,2,4.24037117e-06
162,3,5.50258558
162,4,5.50258512
162,5,2.96222649e-06
162,6,-0.00274096353
163,1,1039.65516
163,2,881.980066
163,3,872.127597
163,4,669.297221
163,5,466.738036
163,6,514.387443
163,7,-43.9949898
163,8,-16.6856416
163,9,-11.9463079
163,10,-1.24325699
163,11,-0.630047486
163,12,-0.689253177
164,1,3528.21901
164,2,3524.75703
164,3,3386.64286
164,4,1576.40209
164,5,1573.95906
164,6,852.692291
164,7,-14.9156261
164,8,-12.6015562
164,9,-8.5943525
164,10,-2.80251803
164,11,-0.896268591
164,12,-1.61670742
165,1,819.507273
165,2,1040.12992
165,3,1040.42485
165,4,1040.41111
165,5,469.030659
165,6,468.517522
165,7,468.568272
165,8,386.571496
165,9,386.565146
165,10,-0.765689833
165,11,-0.893246992
165,12,-0.924175116
165,13,-2.71258047
165,14,-2.63781199
165,15,-2.64115836
166,1,2948.40457
166,2,3080.52384
166,3,3080.37173
166,4,3080.31787
166,5,1253.6803
166,6,1253.61383
166,7,1253.54291
166,8,1479.07605
166,9,1479.07717
166,10,-0.467098997
166,11,-0.346052976
166,12,-0.387409791
166,13,-10.0034295
166,14,-10.1318077
166,15,-10.1373396
167,1,2165.64017
167,2,2.88837353
167,3,2.88820543
167,4,-0.00633795529
167,5,-3.48546238e-06
167,6,2.60528938e-06
168,1,3850.6541
168,2,3722.67475
168,3,1635.32991
168,4,-32.4992406
168,5,14.2624154
168,6,9.70771244
168,7,-1.79629635
168,8,-0.545529481
168,9,0.496828751
169,1,3042.02307
169,2,3039.78975
169,3,2958.31129
169,4,2307.04909
169,5,1388.56752
169,6,1387.30244
169,7,1330.21779
169,8,948.038278
169,9,1000.60929
169,10,1001.16038
169,11,384.867674
169,12,383.254768
169,13,-14.8641941
169,14,-10.3343645
169,15,-3.47752686
169,16,1.72952036
169,17,-1.45680531
169,18,-0.540762755
170,1,2951.27566
170,2,3034.35617
170,3,3030.29275
170,4,2195.28991
170,5,1374.93441
170,6,1407.83617
170,7,1408.90196
170,8,985.586532
170,9,1085.77777
170,10,1087.85082
170,11,302.128295
170,12,273.36381
170,13,-22.2854208
170,14,-11.4030348
170,15,-2.46193483
170,16,1.30736714
170,17,-0.835400039
170,18,-1.04049544
171,1,3413.8915
171,2,3317.27967
171,3,2011.80642
171,4,717.311578
171,5,716.451846
171,6,632.555688
171,7,632.034599
171,8,-6.65431549
171,9,-6.32658465
171,10,-1.16104628
171,11,-0.827923435
171,12,-0.152137896
172,1,3333.21287
172,2,2136.49309
172,3,713.753327
172,4,713.748798
172,5,-9.66351661
172,6,-9.65828675
172,7,-0.206071824
172,8,1.45229782
172,9,1.44144283
173,1,2384.23333
173,2,6.1310773
173,3,6.13107694
173,4,-0.00275646821
173,5,2.53990874e-06
173,6,2.53990874e-06
174,1,1038.81069
174,2,867.097313
174,3,865.849273
174,4,650.118705
174,5,531.17568
174,6,450.152746
174,7,-63.7312573
174,8,-33.6068153
174,9,7.51908531
174,10,-0.850655852
174,11,-1.05286754
174,12,-1.20573086
175,1,3528.53313
175,2,3525.19361
175,3,3389.20363
175,4,1576.60138
175,5,1575.71358
175,6,937.092118
175,7,-13.0823514
175,8,-9.00582643
175,9,1.45063944
175,10,-0.466392242
175,11,-1.38235056
175,12,-1.12926004
176,1,1060.58114
176,2,1060.7042
176,3,1060.71059
176,4,851.190146
176,5,546.140709
176,6,545.974004
176,7,545.883464
176,8,487.087952
176,9,486.875117
176,10,-0.415984875
176,11,-0.448522357
176,12,-0.468678565
176,13,-6.01421289
176,14,-5.98897748
176,15,-5.98574317
177,1,2948.04829
177,2,3080.08041
177,3,3079.96831
177,4,3079.97995
177,5,1253.3563
177,6,1253.52839
177,7,1253.59041
177,8,1478.77052
177,9,1478.77172
177,10,-0.128707832
177,11,-0.0678016145
177,12,-0.0407715842
177,13,-10.1168588
177,14,-10.1191341
177,15,-10.0710266
178,1,2164.57353
178,2,2.86424691
178,3,2.86412584
178,4,-0.00248161765
178,5,-4.11899415e-06
178,6,1.67908204e-06
179,1,3849.40677
179,2,3721.68492
179,3,1635.62258
179,4,-32.5563725
179,5,14.024967
179,6,10.1339111
179,7,-1.76163806
179,8,-0.387575027
179,9,0.478588916
180,1,3041.65014
180,2,2958.26852
180,3,3039.06533
180,4,2305.75056
180,5,1388.43428
180,6,1386.96279
180,7,1333.68807
180,8,1000.03828
180,9,1001.70872
180,10,956.186287
180,11,384.852304
180,12,382.53757
180,13,-23.0814373
180,14,-8.49523571
180,15,-6.74504825
180,16,1.28496476
180,17,-0.84145333
180,18,-0.693511008
181,1,2950.68826
181,2,3030.5698
181,3,3033.29978
181,4,2191.88661
181,5,1370.31505
181,6,1407.25209
181,7,1408.0706
181,8,982.946308
181,9,1085.22216
181,10,1087.59641
181,11,280.317849
181,12,298.222397
181,13,-14.3344824
181,14,-7.56404042
181,15,1.67893336
181,16,-0.965862232
181,17,-1.29629327
181,18,-2.31283915
182,1,3413.4412
182,2,3317.1628
182,3,2010.9994
182,4,716.612451
182,5,716.376454
182,6,632.892372
182,7,632.667283
182,8,-9.17005618
182,9,-8.83363167
182,10,-0.84434903
182,11,-0.582571407
182,12,-0.0908832032
183,1,3341.89254
183,2,2149.02397
183,3,715.282206
183,4,715.258983
183,5,-18.6198729
183,6,-18.6330072
183,7,-0.10999476
183,8,0.403539023
183,9,0.400001871
184,1,2383.55498
184,2,4.57453499e-06
184,3,6.01219201
184,4,6.01218256
184,5,-0.00274538622
184,6,-1.14325424e-05
185,1,1034.90614
185,2,861.754217
185,3,864.218768
185,4,534.157822
185,5,650.168343
185,6,450.98282
185,7,-58.464207
185,8,16.4212714
185,9,-31.0329899
185,10,-1.24478908
185,11,-0.994602231
185,12,-0.860863057
186,1,3525.49169
186,2,3524.03765
186,3,3387.49776
186,4,1576.01516
186,5,1575.56531
186,6,910.963359
186,7,-10.6992088
186,8,-9.2301768
186,9,-3.60393228
186,10,-3.52238894
186,11,0.309610893
186,12,-0.601590169
187,1,851.515373
187,2,1060.52854
187,3,1060.21222
187,4,1060.21823
187,5,487.800031
187,6,487.791914
187,7,546.800465
187,8,546.776827
187,9,546.767776
187,10,-0.44460144
187,11,-0.63928071
187,12,-0.656270026
187,13,-5.71353864
187,14,-5.7086544
187,15,-5.67883396
188,1,2947.8263
188,2,3079.60798
188,3,3079.68575
188,4,3079.67855
188,5,1253.69366
188,6,1253.74392
188,7,1253.77939
188,8,1478.42298
188,9,1478.4249
188,10,-0.145383788
188,11,-0.173635352
188,12,-0.160690905
188,13,-10.1704207
188,14,-10.1139633
188,15,-10.1172222
189,1,2164.45621
189,2,1.47254643e-05
189,3,3.91946434
189,4,3.91951123
189,5,-1.22806255e-06
189,6,-0.002464506
190,1,3721.25605
190,2,3848.91494
190,3,1634.7607
190,4,-32.1403078
190,5,14.995262
190,6,10.08355
190,7,-1.65930385
190,8,-0.619119601
190,9,0.423517963
191,1,3041.46208
191,2,3038.7337
191,3,2957.84567
191,4,2305.43517
191,5,1388.27041
191,6,1387.32075
191,7,1330.95037
191,8,999.392149
191,9,1000.16932
191,10,950.878393
191,11,384.433698
191,12,383.129846
191,13,-17.7322696
191,14,-8.1100903
191,15,-6.25944766
191,16,1.24479614
191,17,-0.223343461
191,18,-0.499459923
192,1,2950.86321
192,2,3033.39555
192,3,3030.5474
192,4,2191.71564
192,5,1374.31702
192,6,1407.45987
192,7,1408.18733
192,8,984.059474
192,9,1086.83905
192,10,1084.7872
192,11,298.372755
192,12,281.372678
192,13,-13.8946818
192,14,-7.994721
192,15,1.63398484
192,16,-1.90613191
192,17,-0.537659177
192,18,-1.11745951
193,1,3317.30389
193,2,3413.34799
193,3,2010.85215
193,4,715.810202
193,5,715.800124
193,6,632.382024
193,7,632.368337
193,8,-6.63104875
193,9,-6.55777467
193,10,0.251914238
193,11,-1.01305298
193,12,-1.07230835
194,1,3334.83369
194,2,2135.93585
194,3,708.99077
194,4,708.992046
194,5,-10.1096197
194,6,-10.1113101
194,7,-0.147276346
194,8,1.16747871
194,9,1.1681004
195,1,2383.2205
195,2,6.55968513e-06
195,3,5.82879028
195,4,5.82878837
195,5,-0.00705473731
195,6,-3.89848772e-06
196,1,1035.09203
196,2,861.375701
196,3,865.853939
196,4,539.412959
196,5,652.689498
196,6,453.115629
196,7,-55.6533317
196,8,17.4277479
196,9,-28.8378796
196,10,-1.18490187
196,11,-0.307062785
196,12,-0.768206272
197,1,3526.14387
197,2,3523.43606
197,3,3388.13939
197,4,1576.42539
197,5,1576.16617
197,6,945.859074
197,7,-12.7357049
197,8,-9.78177345
197,9,-2.83270411
197,10,-1.60912346
197,11,-0.734991464
197,12,-0.379920372
198,1,850.825594
198,2,1060.14729
198,3,1060.17294
198,4,1060.1659
198,5,544.631888
198,6,545.625296
198,7,545.6683
198,8,485.557109
198,9,485.618588
198,10,-1.0372746
198,11,-0.935838246
198,12,-0.950816673
198,13,-5.73596717
198,14,-5.8284216
198,15,-5.82608618
199,1,2947.77518
199,2,3079.65173
199,3,3079.43857
199,4,3079.41018
199,5,1253.17459
199,6,1252.94031
199,7,1253.02566
199,8,1478.18191
199,9,1478.19405
199,10,-0.361146714
199,11,-0.318003909
199,12,-0.335902166
199,13,-10.1053382
199,14,-10.1881129
199,15,-10.1816627
200,1,2164.6687
200,2,2.90786841
200,3,2.90762021
200,4,-0.00248202951
200,5,-2.14400996e-06
200,6,2.26301794e-06
201,1,3720.76903
201,2,3848.57488
201,3,1633.40729
201,4,-31.6036312
201,5,14.9962828
201,6,10.7114624
201,7,-1.65902752
201,8,-0.322529498
201,9,0.397498052
202,1,3041.38269
202,2,3039.35499
202,3,2957.87912
202,4,2305.99509
202,5,1387.99069
202,6,1387.16611
202,7,1331.41662
202,8,946.507141
202,9,1000.21245
202,10,1000.81517
202,11,385.814254
202,12,381.933622
202,13,-12.7895658
202,14,-10.8706758
202,15,-2.77057065
202,16,2.25238656
202,17,0.299869268
202,18,-0.212675987
203,1,2950.78876
203,2,3030.78433
203,3,3033.5482
203,4,2191.92586
203,5,1374.15817
203,6,1407.28566
203,7,1408.23285
203,8,983.861751
203,9,1086.79653
203,10,1084.65301
203,11,298.289426
203,12,281.025395
203,13,-14.111498
203,14,-8.29536094
203,15,-2.49757387
203,16,0.789244494
203,17,-0.313005798
203,18,-1.2128764
204,1,3316.62142
204,2,3413.36354
204,3,2010.83562
204,4,717.7143
204,5,717.582202
204,6,632.848487
204,7,632.702441
204,8,-7.25356111
204,9,-6.96765782
204,10,-0.771049533
204,11,-0.522480243
204,12,-0.17835892
205,1,3332.28207
205,2,2135.79653
205,3,713.292448
205,4,713.290379
205,5,-9.33963687
205,6,-9.33868646
205,7,-0.157363648
205,8,1.07047158
205,9,1.07091832
206,1,2383.41753
206,2,2.15577063e-05
206,3,5.84563524
206,4,5.84561039
206,5,-0.00275530539
206,6,-1.19474414e-05
207,1,1034.21245
207,2,858.091726
207,3,867.370361
207,4,537.353146
207,5,654.632364
207,6,455.275429
207,7,-43.1599225
207,8,-26.6180942
207,9,11.7392305
207,10,-1.56059455
207,11,-1.38478041
207,12,-0.741447683
208,1,3527.63296
208,2,3523.75063
208,3,3389.80411
208,4,1576.42953
208,5,1574.29143
208,6,982.419738
208,7,-13.8313243
208,8,-9.17841099
208,9,-6.86414325
208,10,-2.80128495
208,11,-0.877833751
208,12,-1.06564727
209,1,1059.77823
209,2,1059.86116
209,3,1059.87593
209,4,850.48502
209,5,544.960894
209,6,544.618656
209,7,544.636455
209,8,484.738079
209,9,484.745758
209,10,-0.744390595
209,11,-0.913231095
209,12,-0.899835417
209,13,-5.70012628
209,14,-5.70190226
209,15,-5.72142232
210,1,2947.81113
210,2,3079.79499
210,3,3079.67221
210,4,3079.69604
210,5,1251.58257
210,6,1252.57007
210,7,1252.51141
210,8,1478.3596
210,9,1478.38197
210,10,-1.10035866
210,11,-0.748552016
210,12,-0.736655315
210,13,-10.0395944
210,14,-9.9793375
210,15,-9.97621618
211,1,2164.40128
211,2,4.00580927
211,3,4.00553163
211,4,-0.00636643878
211,5,-3.02794345e-06
211,6,4.53943735e-06
212,1,3721.40088
212,2,3846.90081
212,3,1633.62935
212,4,-31.1834142
212,5,13.6807888
212,6,10.0134134
212,7,-1.77635255
212,8,0.421387093
212,9,-0.0411601318
213,1,3041.87581
213,2,3041.42378
213,3,2958.0414
213,4,2305.91248
213,5,1388.50824
213,6,1387.30419
213,7,1331.28178
213,8,999.806301
213,9,1000.44147
213,10,946.365422
213,11,384.125947
213,12,382.181997
213,13,-8.35212295
213,14,2.15979102
213,15,1.44196311
213,16,-0.179309805
213,17,-3.69918205
213,18,-3.63193299
214,1,2950.87195
214,2,3030.39252
214,3,3033.20584
214,4,2191.7778
214,5,1373.98748
214,6,1407.1962
214,7,1406.59331
214,8,983.79656
214,9,1084.83071
214,10,1086.35024
214,11,278.860497
214,12,297.773765
214,13,-14.51197
214,14,-5.38954718
214,15,-2.59369088
214,16,1.1110661
214,17,-0.491747537
214,18,-1.14307772
215,1,3316.45988
215,2,3413.34627
215,3,2010.77028
215,4,717.193091
215,5,717.101058
215,6,633.256302
215,7,633.155098
215,8,-7.29664406
215,9,-7.0479499
215,10,-0.895561828
215,11,-0.644474968
215,12,-0.142259654
216,1,3341.52756
216,2,2148.73549
216,3,717.172585
216,4,717.171746
216,5,-17.9129371
216,6,-17.9125431
216,7,-0.178385473
216,8,0.552561231
216,9,0.555868694
217,1,2382.79295
217,2,-1.40512305e-05
217,3,5.87594508
217,4,5.87593953
217,5,-4.59353154e-06
217,6,-0.00703218142
218,1,1035.52943
218,2,859.336398
218,3,843.35465
218,4,505.723531
218,5,630.110467
218,6,470.382784
218,7,-28.7188201
218,8,-23.3885442
218,9,-2.33530197
218,10,-1.17887846
218,11,-1.07507211
218,12,-0.645838257
219,1,3528.20437
219,2,3523.53322
219,3,3389.90678
219,4,1576.7668
219,5,1574.80684
219,6,983.363637
219,7,-13.6561203
219,8,-8.52055699
219,9,-7.43087168
219,10,1.50856692
219,11,-1.4216642
219,12,-0.704847305
220,1,850.023711
220,2,1059.33881
220,3,1059.57702
220,4,1059.5668
220,5,544.294787
220,6,544.611595
220,7,544.645238
220,8,484.539426
220,9,484.599756
220,10,-0.613212162
220,11,-0.760962934
220,12,-0.736196699
220,13,-5.61359415
220,14,-5.62181538
220,15,-5.61973015
221,1,2948.82675
221,2,3080.25562
221,3,3080.33602
221,4,3080.30157
221,5,1479.44577
221,6,1479.5516
221,7,1251.27599
221,8,1251.74227
221,9,1251.91766
221,10,-0.322377736
221,11,-0.119848081
221,12,-0.144294954
221,13,-10.1630644
221,14,-10.2355001
221,15,-10.228118
222,1,2158.59282
222,2,5.28264551
222,3,5.28219258
222,4,-0.0063081827
222,5,-8.66384258e-06
222,6,-2.98219912e-06
223,1,3700.57808
223,2,3822.10162
223,3,1526.4183
223,4,-19.3645201
223,5,10.9281222
223,6,8.4227241
223,7,-1.21613962
223,8,-0.354080668
223,9,0.214933341
224,1,3041.5847
224,2,3041.49021
224,3,2958.11893
224,4,2307.45674
224,5,1388.5704
224,6,1388.75382
224,7,1326.50497
224,8,1000.18066
224,9,1001.14543
224,10,946.500222
224,11,384.832138
224,12,385.120134
224,13,-11.1071559
224,14,-6.12223195
224,15,-3.76964665
224,16,-1.95803106
224,17,1.77809631
224,18,1.23768655
225,1,2193.51262
225,2,2951.21226
225,3,3032.39628
225,4,3031.84361
225,5,984.384588
225,6,1373.37411
225,7,1407.16706
225,8,1407.91155
225,9,1085.6895
225,10,1087.05145
225,11,284.403168
225,12,287.793224
225,13,-8.55548675
225,14,-4.67898252
225,15,-4.2710726
225,16,0.414239417
225,17,-0.549388222
225,18,-1.01939063
226,1,3413.64723
226,2,3310.8537
226,3,2010.28511
226,4,717.401363
226,5,716.715831
226,6,630.910233
226,7,630.606791
226,8,-3.73268587
226,9,-3.49603211
226,10,-0.60381569
226,11,-0.300858776
226,12,0.198534694
227,1,3333.91893
227,2,2137.49353
227,3,713.02821
227,4,713.020763
227,5,-7.54978158
227,6,-7.5454507
227,7,-0.334788604
227,8,0.850389399
227,9,0.822868975
228,1,2385.2001
228,2,1.69355413e-05
228,3,5.40853363
228,4,5.40855216
228,5,-0.00653889981
228,6,9.42746874e-06
229,1,1024.52814
229,2,864.640932
229,3,858.711034
229,4,640.932397
229,5,495.867856
229,6,475.82323
229,7,-31.675435
229,8,-8.76159541
229,9,-9.56679838
229,10,-0.328575625
229,11,-0.671037679
229,12,-0.88940601
230,1,3525.68629
230,2,3522.73101
230,3,3388.71134
230,4,1576.96163
230,5,1574.75924
230,6,945.961947
230,7,-12.6400176
230,8,-9.09320959
230,9,-3.6918594
230,10,0.216043615
230,11,-0.790828928
230,12,-1.84917838
231,1,816.267793
231,2,1037.59987
231,3,1037.43302
231,4,1037.44124
231,5,403.845959
231,6,403.712219
231,7,480.506738
231,8,480.79587
231,9,480.752587
231,10,-0.987501102
231,11,-0.772233901
231,12,-0.712784037
231,13,-4.95210178
231,14,-4.92012323
231,15,-4.82088653
232,1,2948.00277
232,2,3079.23427
232,3,3079.43318
232,4,3079.3978
232,5,1478.61405
232,6,1478.67593
232,7,1251.2608
232,8,1251.56394
232,9,1251.40713
232,10,-0.204926996
232,11,-0.146437726
232,12,-0.15087926
232,13,-10.1391482
232,14,-10.1053114
232,15,-10.1003776
233,1,2158.02368
233,2,5.78647126
233,3,5.51429862
233,4,-0.290760453
233,5,-0.00499038824
233,6,-4.41285463e-07
234,1,3820.34766
234,2,3699.74375
234,3,1528.08971
234,4,-19.2438266
234,5,9.47112308
234,6,10.0712192
234,7,-0.441156633
234,8,-0.257701947
234,9,-0.317814386
235,1,3041.43923
235,2,3041.26111
235,3,2957.85281
235,4,2305.16841
235,5,1388.50323
235,6,1389.26808
235,7,1329.88035
235,8,1000.80203
235,9,1001.46585
235,10,946.434412
235,11,384.683942
235,12,385.953196
235,13,-10.752442
235,14,-4.79666168
235,15,-3.60277206
235,16,-1.59337109
235,17,2.21032059
235,18,1.80806525
236,1,2193.84895
236,2,2950.67809
236,3,3031.77022
236,4,3031.25123
236,5,985.433273
236,6,1370.86017
236,7,1407.31284
236,8,1408.03
236,9,1086.11153
236,10,1085.40875
236,11,289.476436
236,12,286.583264
236,13,-8.20242477
236,14,-3.83427659
236,15,-2.91644616
236,16,-0.927507897
236,17,-1.31672473
236,18,-1.78762186
237,1,3413.20624
237,2,3310.11765
237,3,2009.57368
237,4,717.158391
237,5,717.142926
237,6,631.654657
237,7,631.599642
237,8,-3.82554733
237,9,-3.71081241
237,10,0.0956987737
237,11,-0.680314269
237,12,-0.729223391
238,1,3336.25439
238,2,2140.37783
238,3,712.970116
238,4,712.971909
238,5,-9.25833754
238,6,-9.25811706
238,7,-0.094564002
238,8,1.04069246
238,9,1.03787656
239,1,2384.04159
239,2,9.99702684e-06
239,3,5.81742226
239,4,5.81742132
239,5,-0.00275400395
239,6,-3.9061813e-06
240,1,1023.6786
240,2,859.667435
240,3,849.56992
240,4,636.444358
240,5,485.970093
240,6,458.412217
240,7,-41.0775023
240,8,-7.56393163
240,9,-4.17789353
240,10,-1.06207113
240,11,-0.326489665
240,12,-0.493137251
241,1,3525.89206
241,2,3523.97593
241,3,3388.68612
241,4,1575.53208
241,5,1574.72214
241,6,926.820653
241,7,-12.4378135
241,8,-9.07255593
241,9,-2.61500045
241,10,-1.20179203
241,11,-0.49356798
241,12,-0.420606914
242,1,1036.53177
242,2,1036.24277
242,3,1036.2696
242,4,814.611701
242,5,479.213914
242,6,478.693667
242,7,478.589286
242,8,401.808268
242,9,401.642267
242,10,-0.651154961
242,11,-0.856105804
242,12,-0.809631313
242,13,-4.85314861
242,14,-4.87863957
242,15,-4.89049339
243,1,2947.83107
243,2,3078.96534
243,3,3078.90812
243,4,3078.90165
243,5,1251.48262
243,6,1251.26733
243,7,1251.18076
243,8,1478.43682
243,9,1478.42872
243,10,-0.600547598
243,11,-0.733969421
243,12,-0.7623883
243,13,-10.1037673
243,14,-10.0943977
243,15,-10.0360233
244,1,2157.91755
244,2,-1.93485119e-05
244,3,5.97737846
244,4,5.97741191
244,5,9.21333053e-06
244,6,-0.00247307627
245,1,3819.68184
245,2,3699.33696
245,3,1528.11702
245,4,-19.8997939
245,5,10.2647402
245,6,-2.90943307
245,7,1.44483057
245,8,-0.503755199
245,9,-0.142467505
246,1,3041.13965
246,2,3041.01924
246,3,2957.87218
246,4,2304.91405
246,5,1388.2654
246,6,1388.64297
246,7,1332.00691
246,8,1001.46553
246,9,1002.15508
246,10,946.97616
246,11,387.450815
246,12,388.081182
246,13,-14.2788057
246,14,-6.57746796
246,15,-2.78009828
246,16,2.16273521
246,17,1.36088464
246,18,-0.38849244
247,1,2193.69696
247,2,2950.78631
247,3,3031.29503
247,4,3031.7058
247,5,985.806627
247,6,1373.72333
247,7,1407.67534
247,8,1406.63413
247,9,1086.72591
247,10,1085.53632
247,11,289.09304
247,12,284.56523
247,13,-8.58343129
247,14,-5.37426033
247,15,-3.87617745
247,16,-1.2174735
247,17,0.316041756
247,18,-0.399548767
248,1,3310.20523
248,2,3413.10094
248,3,2009.31161
248,4,717.143371
248,5,716.977523
248,6,632.424142
248,7,632.240399
248,8,-2.27203921
248,9,-1.46069436
248,10,-0.833574124
248,11,-0.487033055
248,12,0.388306241
249,1,3336.85617
249,2,2139.0081
249,3,713.390102
249,4,713.389956
249,5,-8.17644056
249,6,-8.17756326
249,7,-0.0913988699
249,8,1.17531388
249,9,1.17243951
250,1,2383.69146
250,2,-2.65338907e-06
250,3,5.91067273
250,4,5.91067448
250,5,-0.00276234783
250,6,-3.03816706e-06
251,1,1023.14814
251,2,860.033693
251,3,851.302803
251,4,639.316851
251,5,490.815539
251,6,456.969072
251,7,-40.8753506
251,8,-9.4477064
251,9,-6.20272671
251,10,-0.332341619
251,11,-0.584429328
251,12,-0.975577118
252,1,3524.36958
252,2,3522.65612
252,3,3387.71257
252,4,1575.37133
252,5,1574.5933
252,6,924.169405
252,7,-12.5624937
252,8,-8.84636185
252,9,2.7199405
252,10,-1.79251522
252,11,-0.641455658
252,12,-0.950073722
253,1,814.525592
253,2,1035.97269
253,3,1035.94501
253,4,1035.95676
253,5,478.654727
253,6,477.911842
253,7,477.945033
253,8,400.284441
253,9,400.345003
253,10,-0.810631524
253,11,-1.33093847
253,12,-1.39644601
253,13,-4.67805221
253,14,-4.75186128
253,15,-4.73617493
254,1,2947.86022
254,2,3079.25267
254,3,3079.16041
254,4,3079.17767
254,5,1478.46587
254,6,1478.47584
254,7,1251.64488
254,8,1251.27549
254,9,1251.27351
254,10,-10.1699196
254,11,-10.1658861
254,12,-10.134689
254,13,-0.141900596
254,14,-0.133895907
254,15,-0.129012354
255,1,2157.79552
255,2,-5.75861062e-06
255,3,4.64748697
255,4,4.64754878
255,5,-0.0024730609
255,6,-5.49801218e-06
256,1,3698.55396
256,2,3819.89399
256,3,1524.40938
256,4,-19.4457057
256,5,9.68134092
256,6,9.03293741
256,7,-1.86415028
256,8,-0.460668332
256,9,-0.473917595
257,1,3041.23598
257,2,3041.11462
257,3,2958.07011
257,4,2305.06153
257,5,1388.75234
257,6,1388.4817
257,7,1331.71991
257,8,1001.05192
257,9,1001.64916
257,10,946.10844
257,11,385.683836
257,12,384.231108
257,13,-12.7966241
257,14,-6.42257985
257,15,-3.17156321
257,16,2.45989206
257,17,-0.540662885
257,18,1.90342365
258,1,2950.81256
258,2,2193.6186
258,3,3032.11048
258,4,3031.61478
258,5,1373.40329
258,6,1406.92687
258,7,1407.58174
258,8,985.831317
258,9,1086.99498
258,10,1085.67729
258,11,287.214864
258,12,283.979279
258,13,-9.29967906
258,14,-4.37108558
258,15,-3.23922002
258,16,-0.14390346
258,17,-0.835275003
258,18,-1.7379478
259,1,3413.09429
259,2,3309.58361
259,3,2009.44914
259,4,716.828435
259,5,716.64644
259,6,632.650621
259,7,632.855956
259,8,-2.20745861
259,9,-1.90749652
259,10,0.298054829
259,11,-0.512363423
259,12,-0.583787086
260,1,3331.94569
260,2,2136.33854
260,3,708.535977
260,4,708.535838
260,5,-9.28374939
260,6,-9.28103905
260,7,-0.081889456
260,8,1.05150406
260,9,1.05660472
261,1,2384.08172
261,2,1.07347566e-05
261,3,5.77419013
261,4,5.77418819
261,5,1.0787281e-05
261,6,-0.00277289632
262,1,1020.58106
262,2,865.979963
262,3,857.870193
262,4,647.897036
262,5,505.007584
262,6,474.736057
262,7,-28.5328362
262,8,-11.6051886
262,9,-5.03147438
262,10,-0.22721822
262,11,-0.832743235
262,12,-1.06865267
263,1,3523.99043
263,2,3522.53604
263,3,3388.4328
263,4,1575.71643
263,5,1573.6222
263,6,947.138867
263,7,-12.1858478
263,8,-8.38054871
263,9,3.40419495
263,10,-1.60584111
263,11,-0.801576018
263,12,-1.16780558
264,1,1036.16761
264,2,1035.97834
264,3,1035.98817
264,4,814.317931
264,5,477.803754
264,6,477.912071
264,7,477.977991
264,8,400.014688
264,9,400.063793
264,10,-0.846895912
264,11,-0.752002172
264,12,-0.759182418
264,13,-4.93166932
264,14,-4.97072968
264,15,-4.97571234
265,1,2947.90059
265,2,3079.28095
265,3,3079.2413
265,4,3079.22643
265,5,1478.73004
265,6,1478.7258
265,7,1251.42508
265,8,1251.36748
265,9,1251.32275
265,10,-0.366965323
265,11,-0.336319131
265,12,-0.319804348
265,13,-10.0671535
265,14,-10.062623
265,15,-10.0409804
266,1,2157.98031
266,2,5.69368487
266,3,5.69345232
266,4,-0.00247334216
266,5,-7.99910473e-06
266,6,-3.46188409e-06
267,1,3819.29737
267,2,3699.16596
267,3,1527.72857
267,4,-19.4145178
267,5,8.55504242
267,6,9.53031843
267,7,-0.488978654
267,8,-0.525872361
267,9,-0.577256498
268,1,3040.77189
268,2,3039.70307
268,3,2957.97516
268,4,2305.75156
268,5,1387.86585
268,6,1387.70415
268,7,1331.11362
268,8,999.546411
268,9,998.902977
268,10,947.928632
268,11,382.541261
268,12,378.669453
268,13,-9.01307042
268,14,-8.25230737
268,15,-2.44989162
268,16,1.62338234
268,17,-0.328054855
268,18,1.05952405
269,1,2193.77852
269,2,2950.84144
269,3,3031.27538
269,4,3031.79758
269,5,986.261695
269,6,1373.72828
269,7,1407.1343
269,8,1407.50995
269,9,1084.47908
269,10,1085.17616
269,11,283.782173
269,12,284.134845
269,13,-8.77829936
269,14,-4.24367752
269,15,-1.66622746
269,16,-1.04568761
269,17,-0.351057055
269,18,-0.534278703
270,1,3413.10377
270,2,3309.70996
270,3,2009.33178
270,4,716.718403
270,5,716.523303
270,6,632.44916
270,7,632.668744
270,8,1.62188544
270,9,1.23800131
270,10,-1.2673975
270,11,-1.16605745
270,12,-0.135363782
271,1,3341.2545
271,2,2144.55961
271,3,710.788854
271,4,710.787495
271,5,-14.4342305
271,6,-14.4336883
271,7,-0.183589484
271,8,0.717938907
271,9,0.721400906
272,1,2384.09454
272,2,-2.90577772e-06
272,3,5.88181333
272,4,5.88181346
272,5,-0.00655418021
272,6,2.57124684e-07
273,1,1021.11897
273,2,863.95491
273,3,848.471682
273,4,640.690455
273,5,495.223604
273,6,478.429002
273,7,-21.8103887
273,8,-9.85952407
273,9,-11.5529301
273,10,-0.250293043
273,11,-0.633557443
273,12,-0.94855201
274,1,3388.23571
274,2,3525.20785
274,3,3522.1774
274,4,1575.99911
274,5,1573.6774
274,6,945.28206
274,7,-12.5704982
274,8,-9.71802081
274,9,-3.40412665
274,10,-1.37057644
274,11,-0.232650339
274,12,-0.486346274
275,1,814.322646
275,2,1035.82689
275,3,1036.02607
275,4,1036.00913
275,5,478.036626
275,6,477.718106
275,7,477.67341
275,8,399.903614
275,9,399.865644
275,10,-0.582558943
275,11,-0.805491349
275,12,-0.812330794
275,13,-4.92957132
275,14,-4.93185121
275,15,-4.93061738
276,1,2948.77601
276,2,3080.2832
276,3,3080.20192
276,4,3080.19734
276,5,1479.68854
276,6,1479.69628
276,7,1251.37296
276,8,1251.43567
276,9,1251.41708
276,10,-0.367218533
276,11,-0.222331893
276,12,-0.263455951
276,13,-10.1503268
276,14,-10.1850134
276,15,-10.1856896
277,1,2162.46802
277,2,5.79293847
277,3,5.7927164
277,4,-0.00246144363
277,5,6.55386581e-06
277,6,2.72689351e-06
278,1,3819.31283
278,2,3704.36222
278,3,1546.96973
278,4,-19.1557283
278,5,10.1823142
278,6,8.30931925
278,7,-1.3732469
278,8,-0.616411901
278,9,-0.327019809
279,1,3041.35506
279,2,3041.14216
279,3,2958.23991
279,4,2307.34202
279,5,1388.554
279,6,1388.65189
279,7,1328.49451
279,8,999.516856
279,9,1000.42416
279,10,948.033942
279,11,383.717382
279,12,384.422723
279,13,-10.7977987
279,14,-5.85139228
279,15,-3.43965451
279,16,-1.47542077
279,17,1.99759119
279,18,1.46722387
280,1,2193.88231
280,2,2951.25065
280,3,3032.32235
280,4,3032.71266
280,5,986.169856
280,6,1374.23545
280,7,1408.11477
280,8,1407.7325
280,9,1085.29269
280,10,1086.68196
280,11,292.581835
280,12,291.053734
280,13,-8.69297465
280,14,-3.83429802
280,15,-2.30058921
280,16,-0.820833109
280,17,1.41101667
280,18,2.18395891
281,1,3413.76689
281,2,3312.00623
281,3,2010.77383
281,4,717.99002
281,5,717.576419
281,6,633.713172
281,7,634.076493
281,8,1.54003872
281,9,0.875719347
281,10,-0.998773896
281,11,-0.712116095
281,12,-0.125122521
282,1,3335.52846
282,2,2139.2962
282,3,707.062467
282,4,707.056544
282,5,-9.03633692
282,6,-9.0354674
282,7,-0.154369438
282,8,1.27011839
282,9,1.26982168
283,1,2386.94598
283,2,5.50494075
283,3,5.50493644
283,4,1.00428607e-05
283,5,1.00428607e-05
283,6,-0.0027402899
284,1,1034.29823
284,2,867.778724
284,3,863.622983
284,4,642.171028
284,5,486.282771
284,6,474.966583
284,7,-18.2840868
284,8,-4.37733839
284,9,-4.22492531
284,10,-0.954709571
284,11,-0.441428223
284,12,-0.656913386
285,1,3524.36834
285,2,3522.86437
285,3,3388.67469
285,4,1575.97019
285,5,1575.05912
285,6,937.22197
285,7,-12.0769234
285,8,-8.42886739
285,9,-2.75078107
285,10,-0.394602352
285,11,-0.25921287
285,12,-0.110403279
286,1,1007.37975
286,2,1006.98599
286,3,1006.92968
286,4,771.353796
286,5,406.041929
286,6,405.46219
286,7,404.894806
286,8,301.654969
286,9,301.403846
286,10,-1.9317376
286,11,-1.98644223
286,12,-1.202986
286,13,-0.39868754
286,14,-0.75721288
286,15,-0.797241354
287,1,2948.10918
287,2,3079.19857
287,3,3079.11715
287,4,3079.12998
287,5,1478.89837
287,6,1478.91053
287,7,1250.0956
287,8,1250.64957
287,9,1250.64377
287,10,-0.244723178
287,11,-0.490816271
287,12,-0.446706313
287,13,-10.107838
287,14,-10.1699827
287,15,-10.1588261
288,1,2160.46459
288,2,4.52453145
288,3,4.52445627
288,4,-0.00587195072
288,5,4.4286951e-06
288,6,1.10771669e-05
289,1,3703.48421
289,2,3817.94764
289,3,1547.73533
289,4,-19.0239028
289,5,9.8546871
289,6,9.57858928
289,7,-0.636960251
289,8,-0.538524028
289,9,-0.261841809
290,1,3041.23707
290,2,3040.68572
290,3,2958.11796
290,4,2306.34239
290,5,1388.47143
290,6,1388.22019
290,7,1332.44433
290,8,1000.16345
290,9,1000.77557
290,10,951.58313
290,11,383.766873
290,12,385.140395
290,13,-9.11902431
290,14,-3.26982331
290,15,-2.01375834
290,16,1.02106198
290,17,-1.03421707
290,18,0.288491122
291,1,2193.82345
291,2,2950.83163
291,3,3032.12347
291,4,3031.87321
291,5,985.452175
291,6,1372.29358
291,7,1407.20722
291,8,1408.1431
291,9,1086.55838
291,10,1085.69321
291,11,291.884651
291,12,290.788229
291,13,-7.99837376
291,14,-2.64364057
291,15,-2.20472393
291,16,-0.334351488
291,17,0.668442025
291,18,1.29235235
292,1,3311.07734
292,2,3413.21099
292,3,2009.94837
292,4,717.01769
292,5,716.999509
292,6,631.984542
292,7,631.93651
292,8,-3.55709728
292,9,-3.51644175
292,10,-0.0312052412
292,11,-0.422160108
292,12,-0.386611674
293,1,3335.73113
293,2,2139.91687
293,3,713.4396
293,4,713.438158
293,5,-7.25958243
293,6,-7.25942594
293,7,-0.270076691
293,8,0.698466735
293,9,0.699493863
294,1,2385.93884
294,2,5.81300282
294,3,5.81301531
294,4,-0.00276508259
294,5,-1.24439286e-05
294,6,1.13207181e-05
295,1,1029.03945
295,2,863.78261
295,3,866.57235
295,4,647.338302
295,5,500.694945
295,6,493.824108
295,7,-9.36279331
295,8,-9.48564279
295,9,1.06515231
295,10,0.238259384
295,11,-0.442470273
295,12,-0.902627335
296,1,3524.51067
296,2,3523.2923
296,3,3388.43744
296,4,1575.20487
296,5,1574.6296
296,6,929.862663
296,7,-11.6981858
296,8,-8.60213398
296,9,-2.1068983
296,10,0.19229965
296,11,-0.290522408
296,12,-1.40886812
297,1,770.975698
297,2,1006.315
297,3,1006.15421
297,4,1006.18306
297,5,403.907385
297,6,405.79513
297,7,405.757417
297,8,299.59926
297,9,299.713496
297,10,-2.35175576
297,11,-2.30728964
297,12,-1.62485562
297,13,0.921138493
297,14,0.551494795
297,15,0.550396146
298,1,2947.98929
298,2,3080.22693
298,3,3079.88027
298,4,3079.89163
298,5,1250.88752
298,6,1251.48629
298,7,1251.62222
298,8,1479.20239
298,9,1479.21519
298,10,-0.120297372
298,11,-0.271689278
298,12,-0.331517552
298,13,-10.0354939
298,14,-10.0202063
298,15,-10.0220148
299,1,2160.57009
299,2,-1.43964662e-05
299,3,4.70243566
299,4,4.70242918
299,5,3.57860587e-06
299,6,-0.00634327395
300,1,3703.03683
300,2,3817.76097
300,3,1547.69097
300,4,-19.2228625
300,5,9.87202416
300,6,7.87730435
300,7,-0.686357596
300,8,-0.606389099
300,9,-0.495889486
301,1,3041.2012
301,2,3040.39816
301,3,2957.90955
301,4,2306.17702
301,5,1388.78458
301,6,1388.61863
301,7,1330.51405
301,8,999.423374
301,9,1000.12491
301,10,951.763415
301,11,384.96698
301,12,383.974466
301,13,-10.1718664
301,14,-3.5485324
301,15,-3.6404713
301,16,2.35476318
301,17,2.14944597
301,18,-0.217063347
302,1,2950.8272
302,2,2193.86803
302,3,3032.2781
302,4,3031.76252
302,5,1373.31851
302,6,1408.06033
302,7,1407.5615
302,8,985.737058
302,9,1085.91517
302,10,1085.26639
302,11,291.233699
302,12,289.093746
302,13,-8.69351824
302,14,-3.30343265
302,15,-2.82788818
302,16,-0.360063656
302,17,2.42199097
302,18,2.21311426
303,1,3413.27214
303,2,3311.58173
303,3,2010.04723
303,4,716.247143
303,5,716.17779
303,6,631.009269
303,7,630.929957
303,8,-5.6529237
303,9,-5.50339663
303,10,-0.929052797
303,11,-0.82113392
303,12,0.148661781
304,1,3334.73715
304,2,2139.10691
304,3,713.885194
304,4,713.885438
304,5,-6.43458054
304,6,-6.43216701
304,7,-0.278383179
304,8,0.903431776
304,9,0.899968841
305,1,2386.16349
305,2,1.46675281e-05
305,3,5.84715487
305,4,5.84714915
305,5,-0.00273915651
305,6,2.41557568e-06
306,1,1030.84442
306,2,865.045067
306,3,864.585475
306,4,643.90766
306,5,489.23626
306,6,475.667224
306,7,-15.6613249
306,8,-7.62672054
306,9,-3.66563969
306,10,-0.140313742
306,11,-0.402665404
306,12,-0.707340567
307,1,3524.0665
307,2,3522.8783
307,3,3388.31651
307,4,1575.27733
307,5,1573.79154
307,6,933.044786
307,7,-12.2627113
307,8,-8.65438519
307,9,-2.8058471
307,10,-0.810131428
307,11,-0.512936266
307,12,-0.190556332
308,1,770.785561
308,2,1006.11678
308,3,1006.50934
308,4,1006.52216
308,5,405.382913
308,6,405.791934
308,7,405.776595
308,8,301.306445
308,9,301.284915
308,10,-0.675508292
308,11,-0.484041351
308,12,-0.50795021
308,13,-1.31877419
308,14,-1.25711766
308,15,-1.28699375
309,1,2947.90242
309,2,3078.84755
309,3,3078.73529
309,4,3078.76635
309,5,1249.98129
309,6,1250.48377
309,7,1250.55837
309,8,1478.43103
309,9,1478.42084
309,10,-0.619836739
309,11,-0.877452236
309,12,-0.803542778
309,13,-10.1152704
309,14,-10.1100627
309,15,-10.1104938
310,1,2160.42607
310,2,4.98068289
310,3,4.98056761
310,4,-0.00585492821
310,5,-3.37051681e-06
310,6,-1.02396428e-05
311,1,3703.05865
311,2,3817.11641
311,3,1547.71567
311,4,-18.7982254
311,5,10.237866
311,6,9.8554438
311,7,-1.02008727
311,8,-0.508566919
311,9,-0.515649851
312,1,3040.98217
312,2,3040.49671
312,3,2957.79787
312,4,2306.2515
312,5,1388.06364
312,6,1388.29069
312,7,1330.41198
312,8,999.854518
312,9,1001.02426
312,10,952.270758
312,11,387.324868
312,12,385.106487
312,13,-10.02697
312,14,-2.90607731
312,15,-2.62219016
312,16,1.45879377
312,17,-0.194024195
312,18,0.999913836
313,1,2193.76134
313,2,2950.88959
313,3,3032.0135
313,4,3032.29833
313,5,986.105324
313,6,1373.82216
313,7,1407.23717
313,8,1407.65794
313,9,1086.41196
313,10,1085.68237
313,11,292.257586
313,12,290.492483
313,13,-8.27073379
313,14,-2.57024534
313,15,-2.1946057
313,16,-0.293311478
313,17,0.764683419
313,18,1.81188381
314,1,3413.15045
314,2,3311.7908
314,3,2009.77637
314,4,716.86233
314,5,716.84028
314,6,631.945
314,7,631.919547
314,8,-4.44541935
314,9,-4.43703623
314,10,-0.765472812
314,11,-0.706048848
314,12,0.198375763
315,1,3335.2271
315,2,2139.10309
315,3,708.191918
315,4,708.191422
315,5,-10.6374878
315,6,-10.6388889
315,7,-0.279990464
315,8,1.00451831
315,9,1.00459571
316,1,2385.7887
316,2,6.37923236e-06
316,3,5.8187202
316,4,5.81872054
316,5,-0.00275566916
316,6,3.29993927e-06
317,1,1028.81725
317,2,868.567177
317,3,857.986912
317,4,642.146825
317,5,486.624275
317,6,478.398668
317,7,-14.643791
317,8,-5.16939119
317,9,-4.94955813
317,10,-0.959715449
317,11,-0.519725956
317,12,0.172005342
318,1,3524.41439
318,2,3522.68801
318,3,3388.61072
318,4,1574.9755
318,5,1573.83766
318,6,941.138006
318,7,-12.372574
318,8,-9.41371489
318,9,-3.56288721
318,10,-0.374673729
318,11,-0.729714789
318,12,-0.665196795
319,1,770.016156
319,2,1005.5631
319,3,1005.46694
319,4,1005.4706
319,5,404.417453
319,6,404.260567
319,7,404.295638
319,8,298.896143
319,9,298.77366
319,10,-0.206773699
319,11,-0.278434253
319,12,-0.259414848
319,13,-1.20586218
319,14,-1.23841849
319,15,-1.22928127
320,1,2947.74857
320,2,3079.10186
320,3,3079.18382
320,4,3079.19845
320,5,1478.63743
320,6,1478.70829
320,7,1250.43162
320,8,1250.26895
320,9,1250.27497
320,10,-0.432556781
320,11,-0.404095681
320,12,-0.264082468
320,13,-10.3358475
320,14,-10.2955504
320,15,-10.2911294
321,1,2160.42876
321,2,4.95476752
321,3,4.95477212
321,4,-0.00245954757
321,5,1.70850108e-05
321,6,2.85572919e-06
322,1,3702.892
322,2,3816.50605
322,3,1546.29687
322,4,-19.1481722
322,5,7.96520926
322,6,9.79512155
322,7,-1.17937603
322,8,-0.6398013
322,9,-0.779068042
323,1,3040.6734
323,2,3039.9045
323,3,2957.83958
323,4,2306.13456
323,5,1388.31442
323,6,1388.20842
323,7,1330.52018
323,8,999.256861
323,9,999.669452
323,10,951.244202
323,11,384.246441
323,12,380.534063
323,13,-10.3025426
323,14,-6.26824484
323,15,-3.80154834
323,16,2.08329527
323,17,0.516202433
323,18,-0.579987917
324,1,2193.79205
324,2,2950.91563
324,3,3032.29915
324,4,3031.52238
324,5,985.56164
324,6,1373.44129
324,7,1407.32299
324,8,1408.08556
324,9,1085.30159
324,10,1085.94683
324,11,291.479767
324,12,289.610773
324,13,-7.5014337
324,14,-2.61288592
324,15,-1.78946595
324,16,-0.390225125
324,17,2.27727528
324,18,2.03570417
325,1,3311.91705
325,2,3413.20958
325,3,2009.72834
325,4,715.859127
325,5,715.759004
325,6,630.849571
325,7,630.737018
325,8,-4.87381713
325,9,-4.72658674
325,10,0.0751615948
325,11,-1.05403711
325,12,-1.10926574
326,1,3335.92413
326,2,2139.41098
326,3,713.728134
326,4,713.729014
326,5,-6.06814441
326,6,-6.06737729
326,7,-0.0838521334
326,8,1.18977133
326,9,1.18896854
327,1,2385.64259
327,2,-3.51194506e-06
327,3,5.63864449
327,4,5.63864437
327,5,1.73909673e-06
327,6,-0.00705126973
328,1,1028.47231
328,2,866.40777
328,3,856.378084
328,4,641.982746
328,5,483.475862
328,6,472.2115
328,7,-16.8561373
328,8,-6.25055824
328,9,-4.62488237
328,10,-1.28331549
328,11,-0.538771939
328,12,-0.630155409
329,1,3523.85391
329,2,3521.84499
329,3,3388.62219
329,4,1575.30907
329,5,1573.00191
329,6,941.987328
329,7,-12.2278466
329,8,-9.0627636
329,9,-2.84501624
329,10,-1.01843166
329,11,-0.407816411
329,12,-0.632127566
330,1,770.921
330,2,1006.08046
330,3,1006.29309
330,4,1006.27485
330,5,404.998005
330,6,405.804968
330,7,405.751278
330,8,301.31034
330,9,301.381679
330,10,-0.250989652
330,11,-0.539986299
330,12,-0.583081835
330,13,-2.38136276
330,14,-2.35045332
330,15,-2.36342689
331,1,2948.81476
331,2,3079.83525
331,3,3080.32564
331,4,3080.36358
331,5,1479.71551
331,6,1479.76644
331,7,1250.49835
331,8,1250.33052
331,9,1250.40767
331,10,-10.2105376
331,11,-10.0908706
331,12,-10.0945021
331,13,-0.0506489524
331,14,-0.0953547809
331,15,-0.0925967238
332,1,2162.14418
332,2,5.57033461
332,3,5.57034795
332,4,-0.0024783054
332,5,4.63445496e-06
332,6,9.23672609e-06
333,1,3704.48343
333,2,3816.87524
333,3,1552.5333
333,4,-18.333544
333,5,12.5122908
333,6,9.65537491
333,7,-1.34458578
333,8,-0.552947883
333,9,0.0448505078
334,1,3040.96084
334,2,3041.20558
334,3,2958.63293
334,4,2307.4571
334,5,1388.92002
334,6,1389.2822
334,7,1331.93894
334,8,999.854629
334,9,1000.10989
334,10,951.725643
334,11,381.409491
334,12,383.098343
334,13,-8.88636841
334,14,-4.33463269
334,15,-2.15057618
334,16,-0.768110783
334,17,2.03970976
334,18,1.57938652
335,1,2193.57952
335,2,2951.19852
335,3,3032.11726
335,4,3032.32461
335,5,986.103776
335,6,1374.33237
335,7,1408.86509
335,8,1407.58863
335,9,1086.05088
335,10,1087.04896
335,11,291.013124
335,12,292.569629
335,13,-8.47039414
335,14,-1.66903741
335,15,-1.21359558
335,16,-0.987581094
335,17,2.15717382
335,18,1.91936227
336,1,3413.71218
336,2,3313.56963
336,3,2010.90831
336,4,632.080939
336,5,632.570594
336,6,716.017037
336,7,715.975192
336,8,-4.42431181
336,9,-4.30023438
336,10,-1.25126943
336,11,-0.506361563
336,12,-0.102287804
337,1,3337.84592
337,2,2140.63805
337,3,712.701526
337,4,712.675959
337,5,-4.39914382
337,6,-4.37412049
337,7,-0.0938277339
337,8,2.4587409
337,9,2.45296178
338,1,2387.848
338,2,1.36698976e-05
338,3,6.56315188
338,4,6.56312237
338,5,-0.00276511398
338,6,-6.94495687e-06
339,1,1039.87942
339,2,869.957787
339,3,868.867266
339,4,645.721828
339,5,484.592499
339,6,476.987121
339,7,-9.53717673
339,8,-3.72520826
339,9,-3.11207851
339,10,-0.293262332
339,11,-1.30865894
339,12,-1.01272636
340,1,3388.95522
340,2,3524.30671
340,3,3524.19467
340,4,1575.8685
340,5,1575.71661
340,6,933.010493
340,7,-12.2089513
340,8,-9.0823526
340,9,-2.44585214
340,10,-0.390805651
340,11,0.219351256
340,12,-0.0594707147
341,1,776.348738
341,2,1011.38165
341,3,1011.58619
341,4,1011.6258
341,5,395.85316
341,6,396.1081
341,7,396.27779
341,8,285.842922
341,9,285.698447
341,10,-0.792455223
341,11,-1.16795247
341,12,-1.02308765
341,13,-3.77347115
341,14,-3.73935487
341,15,-3.61502545
342,1,2948.04237
342,2,3079.00995
342,3,3079.10444
342,4,3079.13354
342,5,1478.92243
342,6,1478.83866
342,7,1250.41796
342,8,1250.04967
342,9,1249.78547
342,10,-10.2056381
342,11,-10.1894037
342,12,-10.1484052
342,13,-0.100722905
342,14,-0.209870021
342,15,-0.162426505
343,1,2159.95904
343,2,5.32513375
343,3,5.32444991
343,4,-0.00245949078
343,5,-7.79921301e-06
343,6,-1.07280635e-06
344,1,3815.98711
344,2,3703.3626
344,3,1552.88093
344,4,-19.0291529
344,5,9.17134574
344,6,9.79497702
344,7,-0.711712091
344,8,-0.738029119
344,9,0.0224424237
345,1,3040.80655
345,2,3040.35227
345,3,2957.96913
345,4,2305.96836
345,5,1388.15527
345,6,1388.45135
345,7,1330.85808
345,8,1000.12078
345,9,1001.16253
345,10,948.86875
345,11,382.684645
345,12,386.633847
345,13,-10.5402601
345,14,-4.17851001
345,15,-1.54560141
345,16,-0.550452474
345,17,1.4160308
345,18,0.970053661
346,1,2193.5209
346,2,2950.84265
346,3,3032.27068
346,4,3032.41114
346,5,985.333776
346,6,1373.19583
346,7,1408.14883
346,8,1407.90542
346,9,1087.22146
346,10,1085.92833
346,11,293.287095
346,12,296.437695
346,13,-8.87638828
346,14,-2.09566827
346,15,1.82908482
346,16,0.88980712
346,17,-0.246886984
346,18,-1.02908235
347,1,3413.55636
347,2,3313.11372
347,3,2010.0806
347,4,716.694676
347,5,716.540749
347,6,631.791906
347,7,631.642128
347,8,-4.05297805
347,9,-3.9215113
347,10,0.318876258
347,11,-1.15698104
347,12,-1.12075785
348,1,3335.97137
348,2,2139.70255
348,3,710.460959
348,4,710.434581
348,5,-7.82683747
348,6,-7.77359027
348,7,-0.158157187
348,8,1.20350737
348,9,1.2512854
349,1,2387.05603
349,2,5.92924974
349,3,5.92895871
349,4,-0.00274906048
349,5,5.33049342e-06
349,6,-3.75841611e-06
350,1,1037.48107
350,2,866.476686
350,3,866.042325
350,4,645.328834
350,5,487.391563
350,6,480.102324
350,7,-6.32329649
350,8,-4.17593472
350,9,-2.53464498
350,10,-0.231341911
350,11,-0.60196947
350,12,-1.3974467
351,1,3523.90122
351,2,3523.63711
351,3,3388.2437
351,4,1575.22357
351,5,1574.88711
351,6,933.990654
351,7,-12.6051087
351,8,-9.16990602
351,9,-3.33868342
351,10,-0.776080501
351,11,-0.66394739
351,12,-0.0745220466
352,1,1010.39906
352,2,1010.81014
352,3,1010.80039
352,4,775.254878
352,5,393.920013
352,6,395.720456
352,7,395.937572
352,8,285.615101
352,9,285.778999
352,10,-0.561953565
352,11,-1.2389882
352,12,-1.44356783
352,13,-3.88474341
352,14,-3.81302073
352,15,-3.65490935
353,1,2948.09914
353,2,3079.72463
353,3,3079.66922
353,4,3079.6775
353,5,1479.31545
353,6,1479.32622
353,7,1250.86951
353,8,1250.61077
353,9,1250.60418
353,10,-0.367933605
353,11,-0.196452109
353,12,-0.222925928
353,13,-10.0916215
353,14,-10.1339867
353,15,-10.1277635
354,1,2160.05897
354,2,5.4536418
354,3,5.45332477
354,4,-3.85460451e-06
354,5,-3.85460451e-06
354,6,-0.00247584267
355,1,3703.59807
355,2,3816.21047
355,3,1555.08402
355,4,-18.2977478
355,5,12.8032736
355,6,9.95485318
355,7,-0.561245185
355,8,-0.218869991
355,9,0.0059434098
356,1,3040.46425
356,2,3039.90755
356,3,2958.04869
356,4,2305.85386
356,5,1330.90281
356,6,1389.06824
356,7,1388.41902
356,8,999.675247
356,9,1000.43726
356,10,950.744347
356,11,384.310936
356,12,381.791424
356,13,-15.9584974
356,14,-8.01666038
356,15,-4.05773046
356,16,1.91486437
356,17,-0.275377051
356,18,1.10370197
357,1,2193.43596
357,2,2951.00919
357,3,3032.27482
357,4,3032.38769
357,5,986.0636
357,6,1373.57912
357,7,1407.47505
357,8,1408.65551
357,9,1086.63385
357,10,1085.72812
357,11,292.443752
357,12,293.632352
357,13,-10.4766276
357,14,-3.05806107
357,15,-2.86375917
357,16,-0.373075589
357,17,1.28782175
357,18,0.886322444
358,1,3313.72483
358,2,3413.77445
358,3,2010.22437
358,4,716.86863
358,5,716.769995
358,6,631.903904
358,7,631.788011
358,8,-2.72917708
358,9,-2.28582137
358,10,1.44453271
358,11,-0.898373838
358,12,-0.606336508
359,1,3335.45362
359,2,2139.0995
359,3,712.225779
359,4,712.224784
359,5,-4.82463158
359,6,-4.66801014
359,7,-0.13119233
359,8,1.69982661
359,9,1.50547266
360,1,2387.26243
360,2,5.83929199
360,3,5.83929196
360,4,-0.00275523455
360,5,2.02844309e-07
360,6,-1.80935013e-06
361,1,1036.46725
361,2,865.235796
361,3,865.684166
361,4,647.754644
361,5,488.864372
361,6,484.721237
361,7,-4.21202383
361,8,-3.83909346
361,9,-1.9135933
361,10,-1.11071278
361,11,-0.848363939
361,12,0.256333165
362,1,3524.363
362,2,3523.80279
362,3,3388.29247
362,4,1575.73533
362,5,1575.09026
362,6,930.030095
362,7,-12.2620221
362,8,-8.33748923
362,9,-2.6792084
362,10,-0.75385928
362,11,0.383882375
362,12,-0.24641806
363,1,773.841339
363,2,1009.76191
363,3,1009.88479
363,4,1009.92537
363,5,394.310539
363,6,393.743998
363,7,393.989882
363,8,283.869998
363,9,283.744541
363,10,-0.840659128
363,11,-0.612850409
363,12,-0.415522628
363,13,-3.62066967
363,14,-3.64677713
363,15,-3.63660555
364,1,2948.02564
364,2,3079.00626
364,3,3078.916
364,4,3078.93823
364,5,1249.62945
364,6,1250.09539
364,7,1250.34525
364,8,1478.91269
364,9,1479.00745
364,10,-0.46089466
364,11,-0.312710542
364,12,-0.163854797
364,13,-10.2015777
364,14,-10.2466147
364,15,-10.2460456
365,1,2159.70123
365,2,1.12957249e-05
365,3,5.30836373
365,4,5.30831755
365,5,6.0093262e-06
365,6,-0.00586434206
366,1,3816.91801
366,2,3704.27499
366,3,1554.43293
366,4,-18.7059281
366,5,11.1835142
366,6,10.1128343
366,7,-0.578368458
366,8,-0.598517893
366,9,-0.0558486947
367,1,3040.97241
367,2,3040.65558
367,3,2958.07831
367,4,2306.11303
367,5,1388.76055
367,6,1388.94541
367,7,1331.35946
367,8,999.853076
367,9,1001.02852
367,10,950.237216
367,11,381.724066
367,12,385.058659
367,13,-10.8901019
367,14,-5.17272113
367,15,-3.09356015
367,16,1.66338013
367,17,0.582764951
367,18,-0.671844273
368,1,2950.90849
368,2,2193.04445
368,3,3032.50708
368,4,3031.9644
368,5,1374.02299
368,6,1407.51423
368,7,1408.5326
368,8,985.530576
368,9,1085.31276
368,10,1085.92327
368,11,289.243863
368,12,294.345279
368,13,-9.07403067
368,14,-2.13114015
368,15,-0.234764186
368,16,-1.36274134
368,17,1.64243021
368,18,1.905851
369,1,3413.49126
369,2,3313.55206
369,3,2010.20544
369,4,717.809807
369,5,717.71784
369,6,631.138976
369,7,631.031338
369,8,-4.84042999
369,9,-4.64811263
369,10,1.02316501
369,11,-0.650879313
369,12,-0.42586579
370,1,3336.51397
370,2,2140.7263
370,3,712.994771
370,4,712.994177
370,5,-3.90378917
370,6,-3.8228772
370,7,-0.111152831
370,8,1.59660365
370,9,1.47227889
371,1,2386.63003
371,2,5.91721559
371,3,5.91715376
371,4,-0.00274655355
371,5,1.85175809e-05
371,6,6.27283451e-06
372,1,1037.57594
372,2,868.05894
372,3,864.499959
372,4,646.160823
372,5,484.448595
372,6,478.049196
372,7,-7.5159622
372,8,-2.99879897
372,9,-1.72116311
372,10,0.575276299
372,11,-0.602603976
372,12,-0.830154906
373,1,3524.16518
373,2,3523.59726
373,3,3388.14814
373,4,1574.93013
373,5,1575.18488
373,6,933.037221
373,7,-12.2818203
373,8,-8.53017576
373,9,-2.9506922
373,10,-0.758873813
373,11,-0.646022673
373,12,0.307670053
374,1,776.679016
374,2,1011.14791
374,3,1010.83866
374,4,1010.8129
374,5,396.851678
374,6,396.998139
374,7,396.978224
374,8,287.889746
374,9,287.952659
374,10,-0.321156714
374,11,-0.421532472
374,12,-0.480852857
374,13,-3.52212288
374,14,-3.55076065
374,15,-3.55557978
375,1,2948.0812
375,2,3079.78861
375,3,3079.30112
375,4,3079.40254
375,5,1479.07911
375,6,1479.13028
375,7,1250.20874
375,8,1250.47665
375,9,1250.82737
375,10,-10.095016
375,11,-10.1971951
375,12,-10.1932721
375,13,-0.148805388
375,14,-0.0585964605
375,15,-0.172767512
376,1,2159.77394
376,2,4.22620814e-06
376,3,5.29055192
376,4,5.29053587
376,5,-1.00920822e-06
376,6,-0.00245888544
377,1,3703.43582
377,2,3814.89352
377,3,1554.2555
377,4,-18.8855087
377,5,10.8859314
377,6,8.81103795
377,7,-0.646671787
377,8,-0.486930884
377,9,-0.152539504
378,1,3040.63686
378,2,3040.08582
378,3,2958.03198
378,4,2305.58908
378,5,1389.55131
378,6,1388.9342
378,7,1330.9436
378,8,999.330293
378,9,1000.12699
378,10,949.355875
378,11,383.196936
378,12,380.358573
378,13,-10.2590461
378,14,-5.451744
378,15,-3.93433819
378,16,1.71206506
378,17,1.08069165
378,18,-0.250372568
379,1,2193.13457
379,2,2950.9845
379,3,3032.47636
379,4,3032.30034
379,5,985.362313
379,6,1373.5827
379,7,1407.63125
379,8,1408.69937
379,9,1084.97979
379,10,1085.29853
379,11,292.827695
379,12,293.997136
379,13,-7.9732081
379,14,-1.94414393
379,15,-0.916043623
379,16,-0.337698599
379,17,1.41868957
379,18,1.57059977
380,1,3313.73397
380,2,3413.31642
380,3,2009.98263
380,4,718.013082
380,5,717.775744
380,6,632.028369
380,7,632.297286
380,8,-2.4541335
380,9,-2.0701666
380,10,0.747418216
380,11,-0.438297468
380,12,-0.612295658
381,1,3335.07771
381,2,2139.13423
381,3,713.432503
381,4,713.431667
381,5,-2.41631355
381,6,-2.41210108
381,7,-0.148205601
381,8,1.67602751
381,9,1.67263656
382,1,2387.34487
382,2,-4.56645293e-06
382,3,5.80292052
382,4,5.80292011
382,5,-0.00656824253
382,6,-4.12145319e-07
383,1,1037.01459
383,2,867.872964
383,3,864.882077
383,4,645.846001
383,5,483.086572
383,6,476.406405
383,7,-8.12969689
383,8,-2.70311066
383,9,-2.61127461
383,10,-1.33152216
383,11,-0.349133257
383,12,-0.98283225
384,1,3524.49161
384,2,3523.44386
384,3,3388.05437
384,4,1575.63396
384,5,1575.1572
384,6,931.80233
384,7,-12.2183541
384,8,-8.25932769
384,9,0.674272418
384,10,-0.753190491
384,11,-0.537524932
384,12,-0.146652083
385,1,1010.67772
385,2,1010.88401
385,3,1010.83158
385,4,776.345909
385,5,395.284326
385,6,397.061425
385,7,396.877091
385,8,287.073894
385,9,286.985553
385,10,-0.473851979
385,11,-0.800671523
385,12,-0.994159497
385,13,-3.43908954
385,14,-3.6161893
385,15,-3.60813849
