     2  angstroemd0  -1.98893519638533860E+01 (Ha)  FINAL CONFIGURATION
free  {format: xyz, source: N2.xyz}
 N  1.44417534395272712E-22  3.73825036186898693E-22  3.34424780758176129E-03
 N -2.71579013536049319E-22 -5.00725230762604476E-22  1.09665577603427655E+00
 forces
N       2.06795153137049305E-25  2.06795153138256919E-25  1.05442740205852203E-07
N       1.20761427619045717E-36  0.00000000000000000E+00 -1.05442740205852203E-07
