     5  angstroemd0  -1.01030945296825223E+02 (Ha)  FINAL CONFIGURATION
free  {format: xyz, source: SiF4.xyz}
 Si -3.68142579076666420E-05 -3.68142584369628940E-05 -3.68142596697462938E-05
 F  8.98825871222508788E-01  8.98825871221271000E-01  8.98825871223876582E-01
 F -8.98816626495675730E-01 -8.98816626497163318E-01  8.98844196031108544E-01
 F -8.98816626498021187E-01  8.98844196030848530E-01 -8.98816626499152282E-01
 F  8.98844196029096265E-01 -8.98816626496519611E-01 -8.98816626496162674E-01
 forces
Si      1.19030292126255307E-06  1.19030835368766516E-06  1.19031148473368639E-06
F       3.40761452999878766E-06  3.40762070617427505E-06  3.40760915946403945E-06
F      -3.88420072330890803E-06 -3.88419321161778099E-06  3.17046222058788802E-06
F      -3.88418995210114504E-06  3.17046299602978040E-06 -3.88418323046083289E-06
F       3.17047322414871890E-06 -3.88419884427395296E-06 -3.88419963432476700E-06
