     6  angstroemd0  -2.30596100277469311E+01 (Ha)  FINAL CONFIGURATION
free  {format: xyz, source: H3CCN.xyz}
 C  1.70057100626170452E-06 -4.15453330669903278E-04 -1.16867942299684602E+00
 C  9.02306349867074802E-06 -4.95435141183043245E-04  2.65248169610509621E-01
 N -7.26419137226422715E-06  6.91801141501295841E-04  1.41748083896247046E+00
 H -3.37415962580846785E-07  1.02947610497203468E+00 -1.55335901292228717E+00
 H  8.92061510721695594E-01 -5.14627803162794772E-01 -1.55432771672897685E+00
 H -8.92064632748865605E-01 -5.14629214478888319E-01 -1.55432259489466751E+00
 forces
C      -1.18151260475545473E-06  2.10327063343771543E-07 -1.03695532228523190E-06
C      -7.91320560931497367E-07 -1.68342113250365630E-05  9.54643869537326292E-07
N       8.54944315001908352E-08  1.22932352325722320E-05  8.65286916725772105E-07
H       2.31137824635958304E-08  1.50831537130025411E-05  3.62295305677659141E-06
H      -1.12365209664539249E-05 -5.90000129186038978E-06 -3.12294392879511691E-06
H       1.31007459181770923E-05 -4.85250339202164438E-06 -1.28298459195933379E-06
