     6  angstroemd0  -2.30205024332140340E+01 (Ha)  FINAL CONFIGURATION
free  {format: xyz, source: H3CNC.xyz}
 N  7.13426118993231995E-02 -1.23627008582702608E-03  1.54357292010595106E-03
 C -1.32537692111870808E+00 -3.96429045318412064E-04  3.58684575261745638E-04
 C  1.23768414252135317E+00  1.18208521828768354E-03 -1.41647454346955173E-03
 H -1.70661660035581852E+00  4.63733227376866064E-01  9.21581011505966496E-01
 H -1.70500508150618391E+00  5.66323032281256356E-01 -8.62394636336271558E-01
 H -1.70672810702258215E+00 -1.03020563930543840E+00 -5.97721262867548855E-02
 forces
N       1.71556298644994281E-07 -4.19983579698562787E-05  3.91068342599742619E-05
C       4.31087538767291375E-06 -3.55397005963356110E-05 -6.17465754244582973E-06
C       1.07158797207065126E-06  2.70388926374116875E-05 -2.63463287746329065E-05
H      -1.03682627359298291E-05 -5.49645023770975053E-06  7.37005120605800925E-06
H       7.42446516148369198E-07  1.91745374279852860E-05 -2.60792890975399497E-05
H       4.07179656139290411E-06  3.68210787385046879E-05  1.21233899485864274E-05
