     6  angstroemd0  -2.30607599823299232E+01 (Ha)  FINAL CONFIGURATION
free  {format: xyz, source: H3CCN.xyz}
 C -1.50047989194460784E-06 -1.54645993022103161E-06 -1.16878619788171734E+00
 C -9.27304374396504492E-06 -5.30917990276754321E-06  2.65183113937218495E-01
 N  7.95335060517633216E-06  7.59440446179003828E-06  1.41727402835185123E+00
 H  5.65197468134193450E-07  1.03005457151341284E+00 -1.55386886371258237E+00
 H  8.92052648274071935E-01 -5.15027979743137965E-01 -1.55387745710317593E+00
 H -8.92050393298503996E-01 -5.15027330534907679E-01 -1.55388436256139739E+00
 forces
C       3.37804394950717958E-07  8.83277115229790902E-07  3.40408991378344532E-07
C       1.67901533648126536E-06 -1.83834028319092541E-06  3.54436043391152756E-06
N      -7.35298224153983909E-07  1.41104676576402736E-06 -2.39160130798401033E-06
H      -8.03200033237542614E-08 -3.37840069269734411E-07  2.71531335653487529E-07
H      -5.50667240930612270E-07  2.41289998256986360E-07 -3.22016763865162978E-07
H      -6.50534263023632373E-07 -3.59433526790143001E-07 -1.44268268909418642E-06
