     5  angstroemd0  -1.01046123916555331E+02 (Ha)  FINAL CONFIGURATION
free  {format: xyz, source: SiF4.xyz}
 Si -1.02331060299576970E-05 -1.02331063415785298E-05 -1.02331062686637551E-05
 F  8.91727851774772651E-01  8.91727851774778535E-01  8.91727851774745117E-01
 F -8.91725249036261824E-01 -8.91725249036409040E-01  8.91732879404053658E-01
 F -8.91725249036469547E-01  8.91732879404318668E-01 -8.91725249036393053E-01
 F  8.91732879404011913E-01 -8.91725249036339429E-01 -8.91725249036127932E-01
 forces
Si      1.45087339718741314E-06  1.45087808671698911E-06  1.45086315211354912E-06
F      -8.13579530073569787E-08 -8.13570223662706177E-08 -8.13581766913592463E-08
F       1.28027191938153640E-06  1.28027459453342620E-06 -3.93006545698225659E-06
F       1.28026671814830384E-06 -3.93005910166571246E-06  1.28028321603932980E-06
F      -3.93005408170989879E-06  1.28026344278156619E-06  1.28027726552073813E-06
