     2  angstroemd0  -2.16619333982980926E+01 (Ha)  FINAL CONFIGURATION
free  {format: xyz, source: CO.xyz}
 C -7.86407987101138724E-21 -6.03069544022239873E-21 -3.61622073582038440E-04
 O  1.02520824179451997E-20  9.19018270209008028E-21  1.12536162207358204E+00
 forces
C       4.23516473627150170E-22  1.05879118406787542E-22 -3.20612547929921554E-06
O       4.23516473627150170E-22  6.35274710440725254E-22  3.20612547929921554E-06
