     4  angstroemd0  -1.24597803284411341E+01 (Ha)  FINAL CONFIGURATION
free  {format: xyz, source: HCCH.xyz}
 H -3.05811508619191526E-05 -3.05811503035959692E-05  2.80894303582072177E-03
 C  2.86142364216461568E-05  2.86142357903330398E-05  1.07608679489867787E+00
 C  3.47173183341139381E-05  3.47173179293014766E-05  2.27391507763634948E+00
 H -3.27504057128303594E-05 -3.27504034160385540E-05  3.34718909101749906E+00
 forces
H      -8.58300898165706516E-07 -8.58300862259067098E-07  1.27216180383220088E-06
C       1.13370042760846761E-06  1.13370036742650460E-06  8.25833933254137469E-07
C       2.75613159057781294E-07  2.75613174518401624E-07 -1.88293652383741323E-06
H      -5.51012688500541380E-07 -5.51012679685839652E-07 -2.15059213248925671E-07
