     3  angstroemd0  -1.61699272406106331E+01 (Ha)  FINAL CONFIGURATION
free  {format: xyz, source: HCN.xyz}
 H  4.72965355087978016E-06  4.72965355086708652E-06 -9.70051905114052053E-04
 C -8.92915260680815860E-06 -8.92915260678368443E-06  1.07672764060656667E+00
 N  4.19949951067572425E-06  4.19949951066395218E-06  2.22424242287022933E+00
 forces
H      -8.71277642119637501E-08 -8.71277642079731661E-08  5.50214199221736653E-06
C       1.69014983427458591E-07  1.69014983419718536E-07  5.50864364968745228E-06
N      -8.18872192154948409E-08 -8.18872192117456613E-08 -1.10107856419047917E-05
