     5  angstroemd0  -8.03393261645504353E+00 (Ha)  FINAL CONFIGURATION
free  {format: xyz, source: CH4.xyz}
 C  5.80285377908268217E-07  5.80285366502764071E-07  5.80287666706237987E-07
 H  6.32959992820884110E-01  6.32959992820898432E-01  6.32959992820654960E-01
 H -6.32958370398163273E-01 -6.32958370398156722E-01  6.32956167689819660E-01
 H  6.32956167690745697E-01 -6.32958370398853276E-01 -6.32958370399078762E-01
 H -6.32958370398844727E-01  6.32956167690744476E-01 -6.32958370399063219E-01
 forces
C       2.58784006104436110E-07  2.58784029112360504E-07  2.58772700912176750E-07
H       1.35310506785029098E-07  1.35310494871298804E-07  1.35312537157524970E-07
H      -1.93120287886511148E-07 -1.93120296691601726E-07 -7.85189754809761466E-09
H      -7.85557467234713317E-09 -1.93118649920835081E-07 -1.93116665653370693E-07
H      -1.93118650330607148E-07 -7.85557737122256545E-09 -1.93116674868233259E-07
