     6  angstroemd0  -2.30602925937250411E+01 (Ha)  FINAL CONFIGURATION
free  {format: xyz, source: H3CCN.xyz}
 C  1.43760339268608253E-06 -2.90988744727613941E-04 -1.16865690330084404E+00
 C -8.05688440164890384E-06 -5.96907856069752449E-04  2.65557530178545165E-01
 N  1.90999975692700037E-06  1.04779615441388265E-03  1.41775528939855966E+00
 H  6.36122637669864457E-07  1.03003999622203546E+00 -1.55296130006150790E+00
 H  8.91795913023339604E-01 -5.15100753039208659E-01 -1.55483189269890754E+00
 H -8.91791839864725211E-01 -5.15099142736443527E-01 -1.55482246248564748E+00
 forces
C       7.86761603637525254E-07 -8.48911795025973404E-06 -3.47530927264544097E-06
C       2.64856575577021713E-06 -2.77642576298356579E-05  2.15716905932426408E-06
N      -9.38126801459249498E-07  1.38181109165730950E-05  1.91328277366444488E-06
H      -1.28419259422560696E-07  1.45205948751499770E-05 -8.43004355879913112E-06
H      -6.24174667045636016E-06  4.56556636481192970E-06  5.22738855149427231E-06
H       3.87296537193042829E-06  3.34910342356038352E-06  2.60751244696165224E-06
