     5  angstroemd0  -1.01059542331943675E+02 (Ha)  FINAL CONFIGURATION
free  {format: xyz, source: SiF4.xyz}
 Si -2.54346140531256919E-07 -2.45767568280525747E-07 -2.22607147896236277E-07
 F  8.91818901591443947E-01  8.91818960373181313E-01  8.91818955269714109E-01
 F -8.91819306415546187E-01 -8.91819357742975050E-01  8.91820013629410213E-01
 F -8.91819362087862055E-01  8.91819969347319774E-01 -8.91819328127187338E-01
 F  8.91820015149319856E-01 -8.91819315125655154E-01 -8.91819334926879370E-01
 forces
Si      1.32686150625502825E-07  4.71739638001300538E-08 -3.49528591976189965E-07
F      -7.93631185253261743E-07 -1.07494590895885057E-06 -1.03344705652838841E-06
F       8.34579095053349204E-07  1.03005850075855094E-06 -1.11943721599500604E-06
F       1.31686668536827955E-06 -1.64322372591331897E-06  1.18691081855157333E-06
F      -1.49050074579387000E-06  1.64093717031348836E-06  1.31550204594801119E-06
