     2  angstroemd0  -2.16641331459705420E+01 (Ha)  FINAL CONFIGURATION
free  {format: xyz, source: CO.xyz}
 C  6.44936323713483493E-22  7.06282185405905122E-22 -1.45246566600042680E-04
 O -4.37557075020079611E-22 -5.36911095583558322E-22  1.12514524656660075E+00
 forces
C       2.64697796016968856E-23  2.64697796016968856E-23 -5.21130735364749853E-06
O       2.64697796016968856E-23  6.61744490042422140E-24  5.21130735364749853E-06
