     5  angstroemd0  -8.03387304347413789E+00 (Ha)  FINAL CONFIGURATION
free  {format: xyz, source: CH4.xyz}
 C  2.60057681056963673E-07  2.60057879521117959E-07  2.60058142734874665E-07
 H  6.33081361307158974E-01  6.33081361307112012E-01  6.33081361307021862E-01
 H -6.33081223357235046E-01 -6.33081223357276568E-01  6.33080825349482845E-01
 H  6.33080825349598419E-01 -6.33081223357255030E-01 -6.33081223357329637E-01
 H -6.33081223357202405E-01  6.33080825349539245E-01 -6.33081223357317091E-01
 forces
C      -2.98223973191951900E-09 -2.98311180471361904E-09 -2.98424592774516249E-09
H       4.83200028873368718E-08  4.83201751228970341E-08  4.83203993818547512E-08
H      -5.65405486352633265E-09 -5.65388490416821463E-09 -3.40291630932387156E-08
H      -3.40297411638986861E-08 -5.65370332691256798E-09 -5.65344825957464787E-09
H      -5.65396712799227828E-09 -3.40294750871026900E-08 -5.65354210129627737E-09
