     5  angstroemd0  -8.03398574490315731E+00 (Ha)  FINAL CONFIGURATION
free  {format: xyz, source: CH4.xyz}
 C  1.55514501921635920E-07  1.55516533358182760E-07  1.55541470919215865E-07
 H  6.33000661255470165E-01  6.33000661255095354E-01  6.33000661250758268E-01
 H -6.33000518587192085E-01 -6.33000518587562899E-01  6.33000220399431823E-01
 H  6.33000220408143521E-01 -6.33000518591563588E-01 -6.33000518595965289E-01
 H -6.33000518590923322E-01  6.33000220407499037E-01 -6.33000518595695616E-01
 forces
C      -2.80374389720119461E-08 -2.80458907092264967E-08 -2.81483131745188060E-08
H       3.75780161635470265E-08  3.75795884203068779E-08  3.75984226189884365E-08
H      -5.78306686216833358E-08 -5.78291119094714451E-08  1.06142263370902585E-07
H       1.06106998523502987E-07 -5.78142534800846776E-08 -5.77956379571570476E-08
H      -5.78169070933547248E-08  1.06109667678475745E-07 -5.77967348582151777E-08
