     4  angstroemd0  -1.24600091855177002E+01 (Ha)  FINAL CONFIGURATION
free  {format: xyz, source: HCCH.xyz}
 H -7.47055808227527923E-06 -7.47055825706536699E-06  2.68876053430692043E-03
 C  7.65797672961211848E-06  7.65797677420738672E-06  1.07601269240892239E+00
 C  7.08892688516441335E-06  7.08892733418016842E-06  2.27398731310766555E+00
 H -7.27634735149065615E-06 -7.27634585132218052E-06  3.34731114053745138E+00
 forces
H       4.60621055424764332E-07  4.60620958118527477E-07 -1.70021567392452284E-07
C      -5.92738731096557787E-07 -5.92738466415478601E-07  1.27154986810246248E-06
C      -1.81044966167520274E-07 -1.81045223048724253E-07 -1.11917968254451408E-06
H       3.13162641839313702E-07  3.13162731345675509E-07  1.76513818345038272E-08
