     3  angstroemd0  -1.71831065301408046E+01 (Ha)  FINAL CONFIGURATION
free  {format: xyz, source: H2O.xyz}
 O  3.40119113118946994E-21  3.24871810627070109E-07  1.15998231769360485E-01
 H -2.34267535137831692E-22  7.70326726751334956E-01 -4.75414976612667961E-01
 H -3.09087100499676885E-22 -7.70327051623152737E-01 -4.75415245458305546E-01
 forces
O      -4.87423752561435753E-24 -1.15622780255516794E-06  1.15414369899608394E-07
H      -4.13590306276513837E-24  4.85537312047976458E-07 -5.01550338085519143E-07
H      -4.13590306276513837E-24  6.70690490507191586E-07  3.86135968185903960E-07
