     3  angstroemd0  -1.71784367036003225E+01 (Ha)  FINAL CONFIGURATION
free  {format: xyz, source: H2O.xyz}
 O -8.64116764610269464E-21 -1.48215950852372577E-05  1.13560510232073364E-01
 H -2.32588396380897557E-20  7.72220248973480738E-01 -4.74202212415338886E-01
 H -2.32603201599546822E-20 -7.72205427378395259E-01 -4.74190288118343795E-01
 forces
O       7.76022856631700224E-21 -2.20840893876955138E-06  3.84492540315853170E-06
H       1.20230702034582573E-21  1.14908496056029939E-06 -2.76285428329078527E-06
H       1.20168663488641095E-21  1.05932397820925665E-06 -1.08207111986785401E-06
