     5  angstroemd0  -8.03401368033456187E+00 (Ha)  FINAL CONFIGURATION
free  {format: xyz, source: CH4.xyz}
 C -3.73571541220217562E-07 -3.73577111100077674E-07 -3.62170469434909358E-07
 H  6.32998209462998451E-01  6.32998209463938144E-01  6.32998207609041574E-01
 H -6.32998284583891513E-01 -6.32998284583123683E-01  6.32998731423437988E-01
 H  6.32998735539669122E-01 -6.32998286845389946E-01 -6.32998288430465905E-01
 H -6.32998286847235803E-01  6.32998735541686286E-01 -6.32998288431543377E-01
 forces
C       2.66136658408467689E-07  2.66163728066166898E-07  2.11135928657889056E-07
H       1.15970442693368744E-07  1.15965591392105084E-07  1.25739437443878069E-07
H      -2.84520716743122505E-07 -2.84525559393978692E-07  1.96699524256050915E-07
H       1.78993154385710690E-07 -2.76588222262670290E-07 -2.66789365612605033E-07
H      -2.76579538744424776E-07  1.78984462198376961E-07 -2.66785524745213060E-07
