     4  angstroemd0  -1.24597713624325674E+01 (Ha)  FINAL CONFIGURATION
free  {format: xyz, source: HCCH.xyz}
 H -7.42354196724594325E-06 -7.42354201659041256E-06  2.32646534508923041E-03
 C  7.50292371152440818E-06  7.50292340708067955E-06  1.07589910975950165E+00
 C  7.27233998615553877E-06  7.27234078282375198E-06  2.27410084016308733E+00
 H -7.35172354942341148E-06 -7.35172217331399694E-06  3.34767349132066361E+00
 forces
H       4.19439174901814509E-07  4.19438729840686762E-07 -2.02918540474566293E-07
C      -4.51895602097964970E-07 -4.51894362377247457E-07 -1.84135388558255730E-07
C      -3.50759290722397943E-07 -3.50760527231452552E-07  2.43297823704691184E-07
H       3.83215717918548350E-07  3.83216159768013194E-07  1.43756105328130840E-07
