     5  angstroemd0  -1.01059537591862664E+02 (Ha)  FINAL CONFIGURATION
free  {format: xyz, source: SiF4.xyz}
 Si -3.49522854057733659E-07 -3.45859572488371759E-07 -3.54348404983400461E-07
 F  8.91816296621776861E-01  8.91816297378503320E-01  8.91816297756328202E-01
 F -8.91815416536025474E-01 -8.91815418014295647E-01  8.91814885997856410E-01
 F -8.91815409447175411E-01  8.91814878535133526E-01 -8.91815414151583941E-01
 F  8.91814878880952566E-01 -8.91815412024550391E-01 -8.91815415247139698E-01
 forces
Si      3.78286330594939095E-06  3.71866289736769579E-06  3.87021918938424280E-06
F      -1.12962953323346116E-06 -1.14369259407810213E-06 -1.14496369596363864E-06
F      -1.44229939809780041E-06 -1.41682652739531167E-06  2.36721264684789713E-07
F      -1.56418056739846093E-06  3.59873509843080032E-07 -1.49133358454449976E-06
F       3.53246192780331082E-07 -1.51801728573736170E-06 -1.47064317356089459E-06
