     5  angstroemd0  -8.03401211993196718E+00 (Ha)  FINAL CONFIGURATION
free  {format: xyz, source: CH4.xyz}
 C -4.98817260167881959E-07 -4.98829681846015854E-07 -4.99024046082064989E-07
 H  6.32998034881546046E-01  6.32998034883658689E-01  6.32998034918096253E-01
 H -6.32998346057535466E-01 -6.32998346055548722E-01  6.32999156089447013E-01
 H  6.32999156019953713E-01 -6.32998346022606628E-01 -6.32998345990693156E-01
 H -6.32998346026703240E-01  6.32999156024178222E-01 -6.32998345992804023E-01
 forces
C       1.12758907606647274E-08  1.13456842827908942E-08  1.24563462956891834E-08
H       7.80069744092536994E-08  7.79937694821487950E-08  7.77817282411738189E-08
H      -3.56641098126159068E-08 -3.56773476956613607E-08 -1.81883469053919439E-08
H      -1.78237044220072425E-08 -3.58167427313347114E-08 -3.60290907722326192E-08
H      -3.57950509352952891E-08 -1.78453633379436187E-08 -3.60206368592384457E-08
