     3  angstroemd0  -1.61696403015432182E+01 (Ha)  FINAL CONFIGURATION
free  {format: xyz, source: HCN.xyz}
 H  3.28735713360197689E-06  3.28735713361179146E-06 -7.37643312140819660E-04
 C -6.10325318310155308E-06 -6.10325318312062234E-06  1.07663987244326598E+00
 N  2.81589650424692665E-06  2.81589650425618176E-06  2.22409778244055678E+00
 forces
H      -2.23441392951764827E-08 -2.23441392859857517E-08 -2.23506901729404849E-06
C       4.33550120421265258E-08  4.33550120243081422E-08  3.92022760995939849E-06
N      -2.10108727469512806E-08 -2.10108727383238265E-08 -1.68515859266529579E-06
