     6  angstroemd0  -2.30607121463742004E+01 (Ha)  FINAL CONFIGURATION
free  {format: xyz, source: H3CCN.xyz}
 C  2.12809601683276061E-07 -1.46411217928007114E-06 -1.16876136024402699E+00
 C  7.10703990570580874E-07 -1.09744376894906203E-05  2.65242437642415452E-01
 N -6.27265971749645997E-07  1.60426992660076058E-05  1.41735778095235343E+00
 H -6.63011131244268955E-08  1.03003641800930068E+00 -1.55391504731761576E+00
 H  8.92030162791434655E-01 -5.15019982979384561E-01 -1.55394205335716640E+00
 H -8.92030392737941491E-01 -5.15020039179313271E-01 -1.55394149664576231E+00
 forces
C      -2.45470964038542742E-07 -7.50751443420496499E-07  8.02716759589250937E-07
C      -2.34871822499551739E-07  6.46432998353596149E-07  1.32414522725967701E-06
N       1.10914286072425236E-07 -1.84820957606431558E-07 -9.69975174172912007E-07
H       7.01576750911871443E-08  1.05464555546774113E-07 -1.67073650028147307E-07
H       3.20467122122896857E-07  4.59526778194768819E-08 -6.02675465534782200E-07
H      -2.11962967484147525E-08  1.37722169307080173E-07 -3.87137697113089614E-07
