     4  angstroemd0  -1.24597782505640104E+01 (Ha)  FINAL CONFIGURATION
free  {format: xyz, source: HCCH.xyz}
 H -2.86869661461946869E-05 -2.86869657120254594E-05  2.81267929866555605E-03
 C  2.84492302475235735E-05  2.84492297229948058E-05  1.07608758368067048E+00
 C  2.91964953844260526E-05  2.91964951405415264E-05  2.27391357498189617E+00
 H -2.89587613047443428E-05 -2.89587591515108830E-05  3.34718606862711310E+00
 forces
H      -3.53855251350110691E-07 -3.53855234370651231E-07  6.59977538878781728E-07
C       3.83206313506457008E-07  3.83206283727238313E-07  8.24767659346693045E-07
C       2.91804357455964646E-07  2.91804367560356411E-07 -1.86242413800122211E-06
H      -3.21155419612310645E-07 -3.21155416916942646E-07  3.77678939775747495E-07
