     4  angstroemd0  -1.17028554691657689E+01 (Ha)  FINAL CONFIGURATION
free  {format: xyz, source: NH3.xyz}
 N -1.42575399084631730E-07 -5.63739831662067932E-06  3.75712912846026370E-01
 H  5.43804466609365124E-07  9.51647959377763697E-01  3.90387561636996484E-03
 H -8.24157769264480922E-01 -4.75821576111252531E-01  3.90593789134734788E-03
 H  8.24157404527693593E-01 -4.75820732363562426E-01  3.90576628861329447E-03
 forces
N       1.20881833577106668E-06  5.81448308141134367E-06  1.62348625162425269E-06
H      -5.61175799407201779E-07 -1.92964256620914488E-06  9.73323701720936385E-07
H      -4.84053762156351308E-07 -1.80538014641364948E-06 -1.57107582858572039E-06
H      -1.63588774207513646E-07 -2.07946036878854826E-06 -1.02573412475946932E-06
