     3  angstroemd0  -1.71784395536033578E+01 (Ha)  FINAL CONFIGURATION
free  {format: xyz, source: H2O.xyz}
 O -3.90437187639425962E-21 -1.51420815729342019E-05  1.13560836627823764E-01
 H -2.34113357466550070E-20  7.72222156429605233E-01 -4.74202500825049833E-01
 H -2.33989780817747754E-20 -7.72207014348031962E-01 -4.74190326104382942E-01
 forces
O       6.12393103162838316E-21 -5.16702442412404068E-06 -2.66677466231723313E-06
H      -1.36753634770329300E-21  2.35452198506587427E-06 -6.33043960761387674E-07
H      -1.36857032346898429E-21  2.81250243905816557E-06  3.29981862307872795E-06
