     4  angstroemd0  -1.24599155528130172E+01 (Ha)  FINAL CONFIGURATION
free  {format: xyz, source: HCCH.xyz}
 H -7.50188115277905468E-06 -7.50188128651890699E-06  2.70197680386369352E-03
 C  8.04437677709701613E-06  8.04437667497124471E-06  1.07604617540058145E+00
 C  6.38005168033160510E-06  6.38005231092583510E-06  2.27395420763543754E+00
 H -6.92254912363897265E-06 -6.92254769937816519E-06  3.34729754674846269E+00
 forces
H       4.26250672520813770E-07  4.26250322304887602E-07  2.60390808438935369E-07
C      -4.86532536821515541E-07 -4.86531444101912728E-07  1.96897568040162771E-07
C      -2.98687073964054685E-07 -2.98688294924720680E-07 -5.58861984724891657E-07
H       3.58968938264756297E-07  3.58969416721745806E-07  1.01573608245793504E-07
