     3  angstroemd0  -1.71784392670309956E+01 (Ha)  FINAL CONFIGURATION
free  {format: xyz, source: H2O.xyz}
 O  7.92115127167772646E-21 -1.69541034997683877E-05  1.13555534970942187E-01
 H -2.26139402856465503E-20  7.72227503668757920E-01 -4.74200545961712849E-01
 H -2.26049985718978013E-20 -7.72210549565258475E-01 -4.74186979310838363E-01
 forces
O       1.02687887590289947E-20  3.40049462439573281E-06  2.27162487091117769E-06
H      -5.21640773791253077E-23 -2.36349270027364299E-06  1.58318521032934745E-07
H      -5.22674749556944362E-23 -1.03700192412208897E-06 -2.42994339194422297E-06
