     5  angstroemd0  -8.03401314755208418E+00 (Ha)  FINAL CONFIGURATION
free  {format: xyz, source: CH4.xyz}
 C  1.15030380405671104E-08  1.15613089749177854E-08  1.67071417463448113E-08
 H  6.32998229033884807E-01  6.32998229022297187E-01  6.32998227912653699E-01
 H -6.32998248844004019E-01 -6.32998248855235257E-01  6.32998256023538208E-01
 H  6.32998257535685838E-01 -6.32998249246152445E-01 -6.32998250324824152E-01
 H -6.32998249228605259E-01  6.32998257517782603E-01 -6.32998250318509204E-01
 forces
C      -2.48978254182965565E-08 -2.51767671442767229E-08 -4.87831177475566783E-08
H       9.13763288796101479E-08  9.14286502558404571E-08  9.58344347296952821E-08
H      -7.07941206618753074E-08 -7.07433392218610494E-08  7.96042115366083956E-08
H       7.19956227295797558E-08 -6.75928560408715191E-08 -6.33095802352754855E-08
H      -6.76800055290180531E-08  7.20843121511688243E-08 -6.33459482834715404E-08
